-13521	-19243	356	216	140	-192	3	-139	0
-12886	-18283	352	217	139	-188	7	-138	31
-13056	-18994	350	215	139	-195	3	-137	156
-13130	-19072	356	217	138	-190	5	-141	265
-16038	-18436	354	217	137	-194	6	-139	296
-12559	-19393	357	215	140	-192	7	-138	452
-11950	-18092	349	217	137	-190	6	-139	733
-13340	-18969	358	215	138	-188	6	-140	842
-12588	-18844	358	217	139	-189	5	-139	889
-12961	-18625	357	214	139	-192	6	-140	920
-13364	-18477	359	210	136	-191	4	-141	920
-13661	-19750	358	215	142	-188	1	-144	1029
-14376	-19163	357	215	136	-190	6	-141	1232
-12527	-18845	356	217	138	-193	5	-139	1279
-13637	-19757	354	216	138	-190	2	-135	1466
-13415	-18422	356	217	139	-188	2	-137	1607
-12229	-19013	358	214	138	-192	5	-143	1607
-13470	-18947	358	213	138	-187	5	-136	1763
-13276	-2886	357	217	137	-189	6	-138	1825
-12966	-18718	359	215	138	-191	5	-138	2012
17211	-19521	355	217	140	-190	4	-136	2075
-14490	-18865	356	217	138	-191	5	-138	2199
-13122	-18601	358	214	140	-191	4	-138	2293
-12818	-18636	357	214	135	-196	4	-139	2402
-12177	-18410	357	215	140	-189	6	-139	2558
-12316	-19771	354	216	139	-189	3	-138	2605
-12705	-20217	357	212	139	-193	5	-136	2683
-13812	-18953	357	214	140	-192	7	-139	2886
-12594	-18291	358	213	140	-190	5	-138	2901
-13401	-18881	355	215	141	-188	4	-138	3089
-12949	-18992	358	217	137	-190	2	-136	3245
-13129	-19072	355	214	138	-191	5	-139	3260
-12661	-18535	357	217	136	-191	4	-138	3323
-14329	-19117	354	216	139	-192	3	-135	3525
-16430	-18954	356	217	136	-191	4	-139	3541
-12532	-19626	358	216	137	-189	4	-140	3588
-13586	-20124	356	213	139	-190	6	-137	3713
-13103	-18627	358	214	141	-191	3	-136	3775
-12780	-19464	355	216	140	-190	4	-137	3853
-13432	-18977	355	215	140	-191	6	-138	3931
-12331	-19116	354	216	139	-190	3	-138	3947
-14926	-15972	355	216	137	-190	5	-140	3962
-13688	-19072	359	216	140	-191	7	-138	3978
-12914	-18564	355	217	138	-189	6	-140	4227
-11379	-19422	358	214	135	-195	7	-137	4290
-13581	-18977	359	215	137	-192	0	-136	4305
-12323	-19237	358	214	140	-190	2	-138	4399
-15172	-19412	353	215	140	-189	5	-137	4430
-12898	-19895	356	215	141	-192	3	-138	4461
-12088	-19458	356	218	141	-190	6	-141	4477
-13125	-18536	359	215	138	-189	4	-137	4508
-12164	-19155	357	216	138	-191	3	-138	4571
-13266	-19689	356	214	136	-190	2	-135	4571
-12519	-18964	357	216	138	-189	8	-137	4586
-13298	-19512	355	216	138	-190	2	-142	4649
-13015	-19405	357	215	141	-187	4	-137	4680
-16679	-18499	357	216	138	-189	3	-139	4742
-13151	-19040	357	214	142	-189	5	-140	4820
-11364	-19627	357	212	136	-194	6	-140	4867
-12818	-19089	352	217	138	-194	3	-138	4898
-14994	-18523	356	216	136	-191	2	-139	4961
-12126	-19634	355	217	137	-188	3	-138	5070
-14158	-19319	353	215	138	-192	6	-139	5117
-13596	-19172	358	215	136	-192	3	-138	5210
-13224	-20128	359	215	140	-190	4	-140	5335
-12529	-18890	354	214	139	-193	4	-137	5351
-12255	-18778	357	214	136	-191	6	-139	5429
-12954	-18926	354	216	138	-191	5	-138	5491
-13576	-19359	355	215	140	-187	4	-140	5522
-12807	-19085	356	212	138	-190	5	-139	5663
-13474	-18586	355	216	141	-190	6	-140	5772
-12612	-19232	354	215	138	-190	7	-142	5881
-16607	-18771	356	218	139	-191	4	-138	5959
-13137	-19683	356	218	139	-189	6	-138	6021
-13127	-19180	354	216	136	-192	6	-140	6021
-12661	-19888	356	218	140	-191	3	-138	6115
-13631	-19124	355	215	137	-188	6	-139	6115
-12351	-18885	356	215	140	-192	0	-138	6193
-15229	-18896	353	214	139	-193	6	-136	6458
-13464	-19629	355	219	137	-188	3	-139	6630
-12899	-19434	355	218	139	-192	3	-137	6677
-13142	-18921	353	218	138	-192	5	-138	6708
-12574	-18886	356	216	139	-191	6	-135	6801
-12706	-18183	353	218	140	-189	3	-138	6817
-13718	-20065	355	216	141	-189	1	-136	6879
-13191	-20613	354	216	137	-193	3	-137	6895
-12810	-20838	355	217	138	-194	5	-139	6895
-12036	-18957	358	212	140	-192	3	-137	7035
-12199	-19837	355	216	140	-191	6	-139	7223
-13891	-18107	355	214	141	-192	9	-140	7238
-13196	-18452	352	214	138	-193	2	-142	7332
-11918	-18578	356	214	138	-189	4	-139	7410
-13843	-18731	355	214	139	-196	1	-137	7457
-12594	-16085	357	216	136	-193	2	-140	7472
-12123	-18528	356	218	140	-190	6	-143	7488
-13655	-19151	356	216	139	-190	6	-137	7535
-13618	-19306	356	213	139	-192	4	-139	7550
-12757	-18835	356	214	139	-192	6	-138	7659
-12546	-19343	356	217	136	-191	3	-137	7659
-13137	-19428	355	214	139	-192	2	-140	7753
-12997	-19280	354	216	140	-191	5	-137	7862
-12931	-19788	354	215	137	-189	5	-140	8205
-12968	-20092	355	211	140	-190	7	-140	8299
-14260	-19443	354	216	142	-189	4	-137	8627
-12030	-18929	355	213	139	-189	6	-139	8658
-12008	-19020	356	216	138	-193	6	-137	8673
-13004	-18137	355	217	139	-190	2	-138	9110
-12847	-18588	355	218	136	-195	2	-137	9344
-13570	-20348	354	216	136	-191	2	-139	9531
-12362	-19676	357	214	138	-191	4	-138	9594
-12225	-20910	357	216	139	-192	5	-137	9703
-12706	-18904	356	217	138	-189	3	-135	9797
-13141	-12519	356	217	141	-190	4	-137	9984
-15689	-19529	351	217	140	-190	1	-139	10046
-13090	-19433	354	216	141	-189	-2	-139	10093
-12480	-19786	356	213	139	-188	4	-138	10109
-12934	-19379	358	217	139	-188	5	-138	10280
-13843	-18637	359	217	138	-191	2	-139	10280
2071	-19164	358	219	141	-191	6	-136	10327
-14944	-19946	356	217	141	-190	1	-135	10343
-12200	-18848	358	218	138	-189	5	-140	10421
-13422	-19996	354	219	140	-192	7	-137	10530
-14011	-18305	355	218	137	-191	5	-138	10561
-12792	-18887	357	214	143	-191	5	-140	10577
-12642	-18483	356	214	139	-192	5	-138	10623
-12060	-19110	356	216	142	-189	8	-138	10639
-11991	-19738	354	216	140	-189	7	-138	10811
-12267	-18827	357	219	137	-189	5	-139	10904
-11923	-18581	356	214	139	-188	-1	-138	10998
-12861	-18752	359	221	136	-196	6	-136	11107
-12973	-19339	355	218	138	-190	6	-136	11232
-13158	-18975	353	213	138	-189	4	-139	11513
-12660	-18291	356	219	141	-189	4	-138	11559
-12248	-18733	354	214	138	-190	3	-141	11825
-12298	-19483	353	217	134	-193	2	-139	11871
-13072	-18718	355	215	135	-187	1	-139	11887
-12561	-18348	356	215	141	-193	2	-142	11918
-13255	-18605	355	215	137	-198	3	-142	12074
-12581	-19235	357	215	137	-190	3	-137	12137
-12638	-18521	355	219	139	-189	5	-137	12371
-13327	-19246	356	218	141	-191	5	-135	12495
-12843	-18840	356	216	141	-190	2	-137	12511
-13176	-19241	354	219	141	-190	7	-139	12683
-12928	-18688	354	218	140	-192	4	-142	12729
-13872	-19238	355	219	140	-187	6	-136	12776
-14948	-19380	350	217	141	-189	1	-138	12807
-13042	-18295	357	218	140	-189	3	-137	12932
-5214	-18812	355	215	139	-190	7	-139	13026
-12656	-18871	358	214	140	-191	5	-138	13057
-12580	-19206	357	215	140	-192	5	-139	13073
-12657	-17978	358	214	139	-189	4	-137	13104
-12269	-20773	353	215	142	-190	-1	-140	13197
-13517	-18727	354	216	141	-188	3	-141	13229
-13443	-19114	355	214	140	-191	0	-140	13229
-13726	-19418	355	216	139	-193	4	-141	13307
-13019	-18833	355	214	140	-191	3	-142	13353
-12759	-19749	357	215	141	-191	4	-138	13369
-12471	-18705	358	216	141	-190	5	-139	13431
-11758	-18317	356	214	140	-189	3	-140	13743
-12893	-18440	357	212	142	-191	5	-141	13743
-14891	-18704	356	215	139	-189	7	-139	13868
-12947	-18315	356	217	137	-193	2	-138	13868
-13176	-19644	356	214	135	-188	5	-139	13884
-12697	-19197	357	214	139	-192	5	-139	13962
-12027	-18670	356	216	140	-191	3	-140	14040
-12537	-19359	356	213	141	-191	7	-138	14071
-13316	-19633	354	216	139	-188	5	-136	14087
-13892	-19274	355	218	136	-191	2	-138	14243
-13131	-18823	355	216	138	-190	3	-139	14274
-12511	-19154	352	219	139	-191	3	-139	14289
-13431	-18895	354	216	140	-192	6	-145	14430
-16170	-18318	355	216	141	-195	3	-138	14445
-12766	-18552	356	216	136	-190	3	-139	14477
-11575	-18044	354	215	138	-192	3	-139	14555
-16476	-18611	355	216	141	-188	5	-136	14648
-12836	-18894	357	216	141	-191	4	-138	14757
-12182	-19296	357	219	141	-189	3	-137	14835
-12779	-18890	356	216	138	-192	6	-147	14913
-13495	-19842	356	218	141	-189	6	-139	14945
-12615	-19582	356	217	137	-191	5	-138	15101
-12323	-18686	354	215	139	-191	1	-136	15225
-15119	-19183	355	219	139	-189	4	-140	15225
-13577	-16303	357	216	140	-191	5	-142	15381
-12502	-19266	352	214	139	-189	3	-137	15413
-12785	-19028	356	216	139	-189	1	-137	15537
-13502	-18611	356	210	141	-191	2	-138	15569
-13433	-18583	356	217	141	-189	1	-135	15631
-13068	-19682	357	214	140	-189	5	-137	15740
-13494	-19133	356	216	139	-190	3	-136	15927
-13116	-19000	354	215	140	-191	2	-139	15974
-13672	-18557	354	218	139	-192	1	-138	16021
-12882	-19943	354	217	140	-187	4	-136	16146
-13022	-19119	354	217	143	-192	6	-138	16177
-13270	-19495	354	212	140	-193	6	-140	16177
-15486	-19103	357	218	143	-189	4	-140	16255
-12426	-19449	354	214	141	-190	0	-137	16317
-12246	-18602	354	217	137	-190	4	-139	16333
-12749	-18942	355	217	136	-191	3	-138	16364
-12684	-19081	355	217	140	-190	2	-144	16411
-12563	-19537	352	214	140	-189	5	-139	16442
-12495	-19546	358	217	139	-189	3	-139	16458
-13289	-19003	356	212	141	-192	2	-137	16551
-12409	-19101	354	215	139	-189	0	-139	16676
-12966	-18613	355	213	137	-195	5	-136	16692
-13350	-19013	354	216	142	-190	0	-138	16707
-12973	-19518	356	217	140	-190	3	-140	16723
-12111	-20244	355	217	139	-190	6	-137	16785
-12641	-18677	355	217	140	-190	7	-137	16879
-13093	-19041	353	217	137	-191	1	-136	17051
-12970	-19354	353	217	139	-190	0	-138	17253
-13082	-18563	355	214	139	-189	1	-141	17394
-14134	-19196	354	218	139	-188	3	-136	17487
-12158	-19373	352	216	138	-193	1	-142	17722
-12520	-18822	356	219	141	-189	4	-140	17722
-12558	-19597	356	214	139	-194	6	-142	17753
-12601	-18592	357	217	140	-189	2	-141	17784
-12118	-18978	353	217	139	-188	0	-142	17800
-13370	-18819	356	217	138	-191	3	-140	17924
-12143	-18836	356	215	138	-191	2	-141	17940
-13142	-18729	353	211	138	-190	2	-137	18018
-12100	-19633	352	214	140	-191	3	-140	18252
-13525	-18566	354	214	136	-191	3	-138	18408
-13592	-19029	355	215	139	-191	4	-138	18455
-9700	-19929	354	219	138	-192	2	-138	18486
-12777	-20340	353	215	136	-189	5	-138	18673
-13043	-19021	357	215	137	-197	4	-143	18689
-13466	-19321	355	217	140	-190	6	-141	18751
-13836	-19584	354	219	139	-194	3	-138	18767
-12953	-18987	357	217	143	-195	6	-138	19032
-14027	-18522	352	214	136	-189	2	-136	19079
-12515	-19362	356	216	139	-192	2	-140	19172
-12705	-19503	353	219	140	-194	5	-136	19188
-12145	-19434	352	216	138	-188	4	-139	19235
-12764	-19093	357	216	138	-191	5	-139	19297
-13995	-17944	356	215	139	-189	3	-138	19360
-12043	-18486	353	216	139	-191	2	-138	19438
-12748	-18390	355	215	134	-189	4	-139	19469
-13000	-19066	357	213	141	-192	3	-139	19484
-13396	-19814	357	215	141	-190	4	-137	19609
-13624	-19609	355	218	140	-189	4	-136	19796
-12066	-19111	354	216	139	-190	3	-137	19890
-13612	-18780	352	216	136	-190	6	-137	20280
-13343	-17861	354	216	132	-189	1	-140	20296
-12058	-19019	355	216	134	-190	5	-138	20405
-12180	-18915	356	216	137	-188	3	-134	20420
-11657	-19619	353	216	137	-192	2	-138	20498
-12350	-18365	353	214	139	-191	0	-139	20514
-12618	-19417	354	217	139	-191	6	-138	20576
-11515	-19728	354	216	142	-190	4	-138	20748
-12922	-19107	355	217	142	-190	5	-138	20826
-12487	-19273	355	215	138	-192	6	-135	20982
-16865	-18538	354	216	138	-188	3	-136	21076
-12773	-19199	354	217	140	-189	3	-136	21107
-12959	-18488	355	218	140	-190	2	-139	21185
-12801	-19049	354	217	138	-191	5	-140	21232
-13508	-18570	358	216	141	-191	1	-138	21356
-12413	-18969	355	217	139	-189	3	-136	21419
-12380	-18198	351	214	137	-190	7	-136	21778
-12514	-19634	358	218	134	-191	4	-139	21793
-12199	-18896	353	218	139	-195	3	-138	21840
-11550	-19286	354	213	139	-188	3	-137	21949
-13295	-18857	355	217	137	-190	4	-136	22012
-12379	-18999	353	212	137	-188	3	-145	22105
-12742	-18454	355	210	138	-191	2	-139	22105
-14027	-19653	352	216	140	-189	5	-140	22152
-12741	-19035	354	216	140	-191	4	-137	22292
-13744	-18662	353	213	138	-191	3	-138	22417
-13246	-18317	355	212	140	-191	5	-136	22480
-12717	-18831	355	216	139	-188	6	-140	22932
-13993	-19353	355	217	139	-190	1	-135	22963
-12113	-19204	354	216	136	-189	3	-134	22963
-12259	-19041	353	214	137	-189	2	-137	23057
-12770	-18555	356	215	138	-187	3	-140	23072
-10271	-18769	357	217	138	-192	4	-144	23135
-12722	-19134	352	213	139	-190	4	-138	23150
-13058	-19211	354	213	137	-188	6	-136	23166
-14447	-20987	358	214	140	-190	4	-138	23213
-12897	-18909	353	215	141	-191	5	-141	23275
-13450	-19252	355	213	140	-191	3	-140	23322
-13587	-19360	355	215	140	-194	5	-137	23416
-12461	-19076	354	216	141	-194	0	-136	23462
-16342	-18772	356	215	139	-193	2	-141	23681
-13544	-19204	356	216	139	-190	3	-136	23759
-10112	-20910	357	216	141	-191	2	-140	23899
-13767	-18918	355	217	137	-190	2	-137	24196
-12925	-18712	354	216	138	-191	1	-138	24227
-13184	-18556	355	217	138	-190	3	-139	24274
-13567	-18364	354	216	141	-191	5	-137	24305
-12518	-18343	357	215	137	-192	3	-136	24383
-12009	-18852	357	215	138	-190	2	-142	24554
-12310	-19552	357	215	139	-191	1	-140	24570
-11745	-19287	355	216	140	-192	8	-136	24632
-12693	-20155	357	214	141	-196	5	-138	24648
-12755	-18314	352	215	136	-190	2	-139	24664
-14934	-18803	357	216	139	-189	4	-138	24742
-12661	-19659	356	212	137	-193	4	-139	24757
-12208	-19578	356	217	141	-190	0	-137	25100
-12905	-19869	351	217	139	-191	0	-139	25132
-13125	-18968	357	215	137	-191	6	-139	25163
-12611	-18570	357	217	137	-189	1	-137	25194
-12516	-19819	353	216	139	-190	3	-141	25256
-13041	-19446	356	215	141	-189	5	-136	25350
-12551	-18939	355	217	138	-191	3	-138	25350
-13146	-19302	358	218	141	-190	1	-138	25475
-12590	-19714	354	216	140	-189	6	-138	25600
-13555	-18571	358	217	140	-191	7	-137	25693
-13900	-18264	358	215	137	-186	3	-138	25709
-12474	-20725	356	212	138	-190	1	-140	25849
-12597	-18953	358	216	139	-192	2	-140	25958
-12225	-18725	355	216	137	-191	4	-136	26021
-13636	-18895	355	215	138	-189	4	-138	26068
-13027	-18959	355	214	138	-190	2	-140	26114
-13350	-18979	358	216	139	-190	5	-140	26255
-11957	-19013	356	218	138	-188	2	-136	26348
-12087	-19235	353	217	138	-195	0	-136	26364
-13312	-18792	353	218	140	-190	-1	-144	26582
-13786	-19926	358	219	139	-189	3	-138	26629
-13236	-19189	357	217	138	-190	1	-137	26660
-13077	-17943	352	216	140	-190	5	-139	26785
-13612	-19279	356	215	139	-191	2	-136	26863
-13114	-19459	352	217	140	-190	4	-137	26894
-14640	-19074	355	214	140	-189	2	-135	27050
-12894	-19052	356	212	137	-193	4	-141	27113
-13198	-18260	355	215	142	-189	5	-139	27191
-12205	-18893	348	216	138	-189	4	-138	27300
-13134	-18134	354	214	139	-192	3	-137	27347
-12775	-18867	356	214	141	-195	3	-138	27674
-13253	-19592	353	215	139	-191	0	-138	27706
-12750	-19039	355	217	141	-190	6	-137	27815
-12767	-19751	357	214	141	-189	5	-137	27846
-12527	-19220	355	219	139	-189	4	-139	27862
-13307	-18912	355	217	141	-191	1	-138	28002
-12805	-18976	358	216	138	-188	3	-141	28018
-13106	-19087	353	214	137	-191	1	-136	28127
-13003	-19176	356	215	139	-196	5	-140	28127
-12557	-18793	355	218	140	-191	5	-140	28252
-12861	-18817	355	217	140	-194	7	-139	28267
-12526	-18582	355	215	138	-191	3	-137	28298
-12301	-18668	356	214	139	-192	5	-138	28782
-13997	-19173	355	215	139	-192	3	-138	28829
-16297	-18715	356	216	141	-192	2	-139	29032
-14062	-18509	357	217	137	-192	2	-141	29047
-12338	-18770	352	215	141	-192	4	-141	29078
-13734	-18831	355	215	140	-194	5	-140	29110
-12151	-19356	355	213	139	-191	4	-139	29125
-13075	-19540	354	213	140	-193	2	-138	29250
-12063	-18788	355	214	139	-192	5	-138	29344
-13132	-19055	357	217	139	-191	4	-139	29406
-12394	-18801	356	217	140	-191	6	-138	29406
-12760	-19046	357	214	138	-192	6	-140	29422
-14106	-19649	355	216	140	-192	1	-139	29546
-13260	-19004	356	215	142	-190	5	-136	29640
-13037	-18829	358	217	138	-192	3	-142	29656
-13471	-18707	356	213	141	-192	2	-139	29734
-12509	-19016	357	219	139	-189	0	-143	29812
-13333	-17675	358	215	142	-194	4	-139	29905
-12929	-18667	357	219	139	-191	4	-136	29921
-12494	-18966	356	219	140	-190	3	-137	29952
-13108	-18824	357	221	140	-192	7	-138	29999
-14029	-19273	352	214	140	-190	6	-140	30092
-12563	-19252	359	218	139	-192	4	-141	30217
-16574	-19207	356	217	140	-191	4	-139	30451
-13286	-17616	358	215	138	-192	7	-138	30607
-16038	-19020	358	218	139	-191	7	-137	30607
-13550	-19034	358	219	137	-190	5	-142	30654
-13005	-19159	357	216	141	-193	6	-137	30701
-12242	-16407	358	218	139	-190	4	-138	30732
-12952	-18372	353	217	139	-191	4	-140	30826
-13382	-18975	357	215	139	-192	6	-139	30872
-13108	-18622	357	218	136	-193	3	-136	31028
-12666	-19023	357	215	138	-189	6	-139	31091
-12950	-18729	355	218	137	-189	3	-140	31122
-13112	-16851	359	216	138	-192	4	-138	31216
-12491	-19661	356	219	137	-189	7	-141	31325
-12322	-18921	357	217	139	-191	5	-138	31465
-13543	-19791	353	216	137	-190	7	-145	31574
-14035	-18596	354	215	140	-191	5	-136	31606
-13623	-19439	355	216	137	-193	4	-139	31684
-12206	-18971	351	216	138	-191	5	-140	31730
-11609	-19029	354	214	140	-194	4	-138	31777
-11254	-18911	355	217	140	-189	4	-146	31808
-12660	-19166	358	217	141	-190	3	-139	31855
-13306	-19235	355	217	141	-190	4	-138	31871
-12461	-18988	355	216	139	-194	4	-137	31933
-12962	-18943	357	216	138	-193	2	-139	31949
-12917	-19293	353	218	137	-192	5	-138	31996
-13174	-19009	356	220	139	-188	6	-140	32011
-13291	-19725	354	216	140	-188	6	-139	32214
-13213	-18844	354	215	138	-190	4	-138	32230
-14502	-18965	356	216	140	-194	6	-137	32479
-13500	-18073	358	216	139	-191	-1	-137	32776
-13362	-18355	355	217	140	-191	1	-138	32807
-12493	-17219	359	219	141	-191	5	-139	32900
-15954	-19531	358	216	141	-190	5	-138	33010
-10585	-19342	359	219	138	-192	4	-137	33088
-16878	-19329	359	215	139	-194	6	-136	33103
-13294	-18389	357	217	140	-191	-1	-138	33181
-13321	-19235	356	219	136	-190	1	-138	33275
-13719	-18738	355	218	137	-193	4	-137	33290
-14028	-19357	355	214	139	-189	5	-139	33602
-12268	-18983	356	216	140	-192	8	-137	33665
-12669	-18549	356	213	137	-193	7	-137	33774
-12676	-19244	358	218	140	-189	3	-140	33852
-13689	-19187	360	217	139	-193	1	-138	34055
-12654	-18808	358	215	137	-190	2	-137	34226
-14216	-18793	356	216	140	-192	2	-135	34367
-12575	-19020	358	219	138	-191	2	-137	34382
-13302	-18643	357	218	140	-193	7	-138	34507
-12249	-19090	358	215	137	-194	8	-136	34523
-13154	-19369	356	214	140	-192	6	-134	34554
-12575	-18138	352	216	137	-191	7	-135	34772
-14774	-20160	357	215	138	-192	5	-137	34882
-16165	-18519	356	217	138	-191	4	-135	34928
-13025	-18956	352	215	136	-195	7	-139	34944
-12624	-18431	353	213	136	-192	4	-137	34975
-12934	-19449	355	216	143	-193	8	-140	35069
-14182	-18150	360	217	139	-190	4	-139	35162
-12156	-19213	357	217	139	-189	6	-138	35178
-12085	-18608	358	212	139	-189	4	-140	35240
-12050	-19015	354	215	142	-190	5	-139	35334
-13324	-18828	355	214	140	-189	5	-136	35334
-13003	-19401	355	217	140	-192	6	-138	35412
-13129	-19058	356	216	138	-194	6	-139	35459
-12628	-18836	353	213	140	-193	2	-138	35552
-12931	-18030	355	216	139	-193	4	-137	35864
-12305	-18525	355	214	138	-192	6	-140	35896
-15447	-18817	358	214	142	-192	4	-139	36020
-13345	-19230	357	216	142	-194	6	-140	36161
-13891	-19280	353	213	141	-188	7	-136	36161
-13038	-18988	351	215	139	-191	2	-139	36410
-12516	-18901	354	213	140	-195	6	-137	36566
-12378	-19052	358	216	140	-190	3	-138	36629
-11877	-19357	358	218	140	-193	5	-140	36660
-13068	-18541	358	209	140	-192	7	-138	36676
-12301	-19151	356	216	139	-192	5	-138	36754
-13643	-18972	356	216	140	-191	4	-138	36972
-14485	-18836	356	213	140	-190	5	-138	37081
-12910	-18394	355	217	138	-191	4	-140	37502
-12894	-18243	359	217	140	-190	6	-136	37549
-12164	-18469	357	217	139	-188	4	-137	37658
-13109	-18244	356	218	139	-191	4	-138	37690
-14122	-18734	357	215	140	-190	7	-136	37736
-13285	-19042	354	214	138	-193	5	-138	37752
-12944	-19782	356	214	141	-190	6	-137	37814
-16461	-20908	358	217	140	-189	3	-142	37892
-12987	-18693	356	212	139	-190	1	-136	37924
-12986	-18093	355	217	140	-192	4	-138	37986
-13184	-19309	355	213	141	-187	6	-137	38064
-13578	-19261	352	218	140	-189	3	-137	38111
-12562	-18749	356	218	138	-191	3	-136	38158
-12684	-18871	351	214	138	-192	6	-141	38158
-12665	-19040	354	217	137	-190	6	-138	38236
-12369	-18882	356	217	138	-188	4	-136	38392
-12644	-19532	354	213	139	-191	2	-137	38516
-12378	-19570	357	217	140	-190	7	-137	38532
-12350	-19895	359	216	138	-191	2	-138	38626
-12355	-20458	357	214	139	-193	5	-138	38641
-12962	-18634	359	218	141	-189	3	-135	38641
-11559	-18693	355	216	137	-190	4	-135	38813
-15433	-19290	355	216	138	-192	6	-142	39000
-13000	-19922	356	216	137	-190	5	-137	39172
-13590	-18220	356	216	143	-191	1	-140	39250
-13195	-18561	355	215	142	-196	4	-136	39296
-13339	-19031	356	214	140	-189	7	-138	39374
-12659	-18632	355	216	138	-189	4	-137	39421
-12703	-19127	358	216	139	-190	7	-137	39484
-12708	-18569	355	215	132	-191	5	-139	39562
-13857	-18418	355	215	141	-189	7	-139	39608
-12451	-19581	356	216	135	-192	5	-140	39749
-12584	-18792	356	217	139	-190	8	-137	39796
-13706	-19626	354	214	139	-189	4	-139	39811
-13168	-18840	355	215	141	-192	0	-139	39858
-11896	-19890	357	214	142	-190	5	-139	40076
-12120	-19350	356	214	136	-191	3	-140	40092
-12515	-18718	357	211	139	-189	8	-138	40154
-14195	-19278	354	216	139	-191	7	-141	40154
-12199	-18733	356	216	137	-191	2	-140	40513
-12296	-18984	356	217	141	-191	4	-138	40560
-12585	-18633	357	216	140	-190	3	-137	40685
-12634	-18653	356	212	141	-192	4	-138	40700
-12177	-18935	356	216	137	-189	8	-139	40794
-13395	-19565	354	215	140	-191	3	-137	40825
-13037	-18864	356	218	140	-192	1	-138	40825
-12115	-19350	354	216	139	-190	0	-137	40872
-12936	-18789	358	218	138	-190	4	-138	40966
-12368	-19127	354	218	140	-192	7	-138	40981
-12891	-19419	357	217	138	-192	5	-139	41075
-13927	-19160	355	216	137	-189	5	-140	41309
-12055	-18849	357	216	140	-191	6	-142	41356
-12910	-19986	356	217	140	-189	6	-138	41371
-12681	-18844	358	214	138	-192	5	-141	41527
-13120	-18973	359	218	140	-190	2	-141	41605
-12741	-18506	358	217	140	-189	6	-140	41636
-13108	-18783	357	217	139	-189	2	-139	41683
-13527	-19287	357	216	141	-188	7	-137	41730
-13713	-19271	356	216	142	-191	6	-139	41746
-12983	-20087	358	218	141	-189	8	-139	41761
-12901	-18742	354	216	140	-191	6	-141	41902
-12632	-18445	351	217	140	-190	5	-142	41995
-13379	-18871	357	214	139	-189	8	-136	42120
-13362	-19158	354	212	138	-189	7	-137	42151
-13106	-18351	357	214	139	-189	5	-137	42214
-11638	-19332	353	217	137	-191	4	-136	42245
-11767	-18309	357	218	139	-190	4	-137	42323
-13347	-20152	355	217	141	-189	7	-138	42385
-11944	-19286	354	215	138	-189	6	-142	42401
-13417	-19280	356	213	140	-189	3	-139	42604
-12980	-18995	352	212	136	-193	1	-137	42682
-12240	-18868	354	217	139	-191	4	-142	42853
-13169	-19595	355	214	140	-191	7	-142	42931
-13153	-19123	352	215	139	-191	2	-140	43009
-15463	-18430	358	213	140	-192	6	-140	43025
-12727	-18643	356	215	141	-192	7	-138	43134
-12970	-19448	356	215	138	-189	8	-137	43181
-12021	-18781	353	215	139	-191	5	-141	43196
-12749	-19194	355	216	136	-192	7	-139	43337
-12155	-18970	356	215	141	-190	5	-137	43368
-11981	-19285	356	213	137	-192	5	-138	43493
-13116	-19155	355	210	140	-191	3	-141	43758
-12092	-18803	356	213	139	-190	5	-138	43789
-12474	-18896	352	216	139	-191	4	-140	43789
-12295	-18070	354	215	136	-191	7	-141	43805
-16750	-18939	354	216	138	-191	1	-138	43883
-12804	-18612	357	217	137	-192	2	-139	43898
-16020	-18711	358	218	138	-190	8	-138	43992
-14082	-19141	355	217	139	-192	3	-139	44132
-12892	-18998	358	217	137	-193	4	-140	44179
-13353	-18399	350	213	140	-193	6	-141	44257
-13765	-19273	353	214	137	-191	3	-139	44444
-12973	-18679	358	215	139	-191	4	-138	44569
-12064	-19158	357	215	137	-190	3	-140	44725
-13210	-19445	356	215	138	-190	6	-139	44756
-13634	-19241	358	216	138	-188	5	-139	44881
-12496	-18602	358	214	140	-191	6	-137	44990
-13094	-19539	359	217	139	-190	6	-138	45006
-12263	-19960	359	216	138	-190	4	-138	45334
-13145	-18339	356	216	139	-192	3	-138	45458
-13881	-19600	359	217	139	-193	0	-139	45458
-12388	-18846	357	217	140	-190	2	-140	45474
-13205	-19304	357	217	138	-192	2	-137	45521
-13384	-19842	359	216	142	-190	0	-140	45583
-12691	-20329	358	215	138	-196	4	-138	45599
-13342	-19496	357	214	139	-192	2	-138	45614
-13596	-18982	356	210	140	-192	5	-140	45661
-12201	-20131	358	218	141	-191	4	-141	46036
-12835	-19051	354	216	137	-192	1	-141	46036
-12604	-18877	355	215	139	-191	4	-137	46051
-12420	-18938	353	215	140	-192	3	-141	46129
-13671	-18532	354	215	138	-189	0	-140	46176
-13076	-18836	355	215	137	-191	5	-141	46238
-12440	-18910	353	213	139	-192	2	-140	46285
-12576	-19399	357	217	142	-192	5	-140	46332
-12998	-19423	356	216	138	-191	4	-137	46379
-12380	-19552	356	215	136	-192	6	-141	46441
-12614	-18366	354	214	141	-192	1	-137	46675
-11856	-18604	354	213	142	-191	4	-139	46706
-13209	-19447	356	215	140	-191	5	-137	46862
-12446	-18955	357	214	142	-192	2	-138	46987
-13255	-19118	355	212	138	-190	6	-139	47003
-12135	-18813	356	216	139	-191	3	-141	47268
-12287	-19061	355	214	138	-194	8	-138	47377
-13818	-21045	355	218	134	-189	8	-138	47424
-13459	-18097	356	215	136	-188	6	-143	47440
-13748	-18620	352	216	139	-189	4	-136	47611
-12269	-19536	356	217	137	-190	7	-136	47674
-13039	-21024	356	215	140	-193	6	-137	47752
-13088	-20929	355	215	141	-191	9	-136	48188
-13101	-19079	355	216	139	-191	8	-138	48204
-13317	-19225	358	219	141	-190	1	-143	48329
-13119	-18279	356	216	141	-189	4	-138	48438
-12585	-21177	354	214	140	-191	6	-138	48485
-14250	-18913	354	214	136	-187	5	-138	48532
-12114	-18564	358	215	137	-190	9	-137	48594
-12795	-18377	357	216	139	-190	5	-141	48641
-12675	-18725	356	217	143	-197	5	-138	48750
-14705	-18684	355	216	140	-193	6	-140	48812
-12201	-18506	356	214	140	-192	5	-142	49062
-12323	-19802	353	216	139	-192	4	-139	49062
-13024	-19568	355	216	139	-192	4	-138	49078
-16024	-18847	355	212	140	-188	4	-139	49187
-12182	-18469	355	214	141	-190	6	-141	49218
-12873	-18714	357	212	142	-193	7	-139	49593
-13427	-19228	354	215	138	-193	1	-142	49811
-12477	-19736	354	215	138	-189	3	-139	49858
-12219	-19140	353	213	140	-193	4	-139	50014
-12334	-19079	352	211	138	-190	2	-136	50029
-14253	-19242	358	214	141	-190	7	-138	50076
-12795	-18613	355	217	141	-188	6	-140	50201
-12500	-19295	358	218	141	-190	2	-139	50388
-13723	-18237	353	211	139	-193	6	-137	50497
-12269	-19415	354	214	137	-191	4	-139	50856
-12214	-18629	357	217	138	-189	5	-136	50934
-13102	-18536	358	219	138	-190	5	-139	50981
-12771	-19012	358	216	139	-191	4	-138	51106
-12815	-18786	358	218	138	-192	3	-142	51153
-14377	-20527	356	214	141	-192	7	-139	51215
-12787	-19152	356	218	142	-193	7	-138	51433
-12654	-19214	358	216	141	-191	4	-138	51449
-11959	-19141	358	216	139	-191	4	-139	51449
-12478	-19498	358	218	141	-193	7	-138	51480
-12766	-18866	354	215	140	-197	5	-135	51511
-13498	-19018	355	217	141	-193	2	-139	51527
-12408	-18652	353	216	138	-190	3	-136	51667
-13861	-18708	356	215	138	-191	6	-138	51730
-16875	-18674	359	217	138	-189	4	-139	51792
-12788	-21039	356	218	141	-190	-4	-140	51839
-12751	-19934	358	216	142	-190	3	-141	52073
-12083	-19025	357	213	140	-189	3	-138	52104
-12689	-18946	356	217	135	-191	6	-138	52182
-11694	-20066	358	214	143	-191	4	-136	52213
-12302	-18618	357	217	140	-192	2	-137	52229
-12427	-19508	357	216	138	-192	1	-137	52369
-11875	-19308	356	212	138	-189	4	-138	52432
-13635	-19906	357	217	137	-189	3	-139	52447
-12994	-18810	356	216	138	-188	6	-142	52541
-12751	-20097	356	213	141	-190	7	-137	52806
-13293	-20596	357	211	140	-189	3	-137	53056
-12980	-18896	357	214	140	-194	3	-138	53118
-11843	-19640	354	216	138	-191	6	-139	53149
-12863	-18708	358	215	140	-191	3	-137	53243
-11970	-16177	358	216	138	-192	4	-138	53259
-12983	-19092	357	213	136	-190	4	-142	53305
-14539	-19374	355	214	140	-188	6	-137	53493
-12630	-20504	357	215	139	-189	5	-140	53664
-12941	-18760	357	215	139	-189	5	-140	53820
-12828	-19298	357	216	138	-190	1	-138	53914
-12544	-19564	358	216	139	-190	5	-139	54085
-12441	-18720	356	213	137	-191	5	-137	54397
-12306	-20241	356	213	138	-191	3	-140	54429
-13141	-18325	356	214	139	-191	5	-138	54429
-12616	-18455	356	212	142	-191	7	-138	54444
-12698	-19527	357	213	139	-193	4	-137	54600
-13146	-18965	353	215	142	-190	4	-141	54616
-13320	-19510	358	212	142	-191	8	-139	54663
-13744	-19323	358	217	141	-189	7	-139	54772
-12393	-18628	356	210	142	-190	4	-138	54772
-12564	-19277	356	217	135	-191	1	-139	54803
-13024	-20112	357	211	140	-194	3	-141	54943
-12999	-20123	358	215	139	-190	8	-138	55099
-13422	-19091	358	216	140	-189	6	-139	55193
-12926	-18466	356	214	140	-193	4	-143	55240
-13009	-19166	356	217	139	-189	2	-138	55458
-12866	-18786	355	215	139	-189	2	-138	55489
-12853	-19163	358	216	138	-188	7	-140	55521
-12998	-19044	357	211	136	-189	4	-137	55536
-12603	-19380	357	216	139	-198	3	-139	55552
-13231	-20288	355	215	136	-189	4	-140	55614
-12221	-18790	354	215	139	-190	4	-141	55723
-12931	-19657	356	215	140	-189	8	-138	55755
-12425	-20903	357	217	140	-192	6	-139	55801
-12781	-19528	355	216	140	-191	5	-137	55864
-13092	-18656	358	212	141	-192	1	-137	55926
-12490	-18862	358	216	138	-189	1	-139	55926
-12158	-18889	358	216	137	-192	4	-140	55957
-12335	-18619	356	211	142	-191	2	-139	56035
-13509	-19312	359	217	139	-190	6	-139	56207
-14511	-17112	359	211	138	-191	5	-141	56332
-15376	-19370	354	214	134	-188	2	-138	56488
-13898	-18680	359	216	137	-191	0	-140	56628
-12551	-18703	356	216	141	-190	4	-139	56753
-13156	-18228	354	215	140	-189	4	-139	56800
-13034	-18818	357	215	138	-193	2	-138	56815
-12842	-18537	354	217	139	-187	8	-138	57205
-12322	-18641	357	217	140	-186	6	-138	57377
-12777	-18991	358	217	139	-189	2	-139	57533
-12650	-19059	359	214	141	-189	0	-138	57705
-7480	-19803	359	217	139	-188	5	-142	57705
-13472	-19603	357	218	141	-189	7	-138	57736
-12781	-18636	358	214	141	-190	4	-141	57783
-13150	-18845	356	213	142	-190	5	-139	57829
-12539	-18323	357	216	137	-188	1	-138	58032
-13758	-18941	357	212	140	-190	5	-138	58235
-15417	-19417	359	213	141	-188	4	-137	58313
-12515	-18879	358	212	137	-192	4	-138	58422
-12721	-18325	355	214	140	-193	6	-139	58578
-11715	-19312	353	216	139	-191	5	-137	58641
-13461	-18936	357	216	139	-190	2	-139	58828
-12386	-18675	356	216	138	-191	4	-141	58828
-11746	-18599	356	217	141	-192	6	-138	59202
-13023	-18892	353	216	139	-189	5	-137	59218
-13679	-19076	357	218	140	-190	7	-135	59514
-13538	-18607	354	214	140	-191	3	-135	59748
-12662	-19123	359	213	139	-189	7	-136	59795
-12524	-18970	356	215	139	-189	6	-140	59811
-15585	-18772	355	213	135	-190	4	-136	59873
-12153	-16558	356	215	138	-192	6	-140	59982
-13186	-18918	357	216	139	-191	6	-140	60076
-11931	-19296	359	214	140	-188	5	-138	60091
-15557	-21148	355	214	139	-190	6	-137	60216
-12495	-19176	356	212	140	-191	1	-138	60341
-11998	-18555	357	215	139	-190	6	-137	60403
-13351	-19079	358	218	138	-188	7	-137	60403
-13086	-19410	357	216	138	-189	5	-137	60528
-13332	-18450	358	213	140	-190	5	-138	60544
-13458	-19369	359	216	138	-190	6	-138	60684
-13048	-18483	357	213	140	-193	5	-138	60684
-11832	-19166	356	212	138	-191	1	-140	60715
-12949	-19027	357	215	135	-193	4	-139	60809
-13074	-18727	356	217	138	-192	7	-141	60871
-12405	-19343	360	216	141	-189	6	-139	60949
-13902	-17143	355	213	138	-192	2	-137	60965
-13223	-15704	355	214	142	-189	6	-139	61012
-12854	-18803	357	213	140	-190	5	-138	61105
-13679	-18782	355	215	139	-189	4	-136	61121
-13667	-18531	359	214	140	-188	3	-143	61246
-13069	-19592	353	213	140	-191	6	-137	61293
-12300	-19405	358	215	138	-193	3	-136	61449
-12340	-19687	358	218	137	-190	7	-136	61698
-13726	-18600	356	213	140	-191	4	-139	61854
-13610	-19847	358	219	138	-190	2	-138	61995
-12773	-19528	358	213	139	-193	4	-138	62073
-12607	-16805	356	212	139	-191	5	-137	62073
-12525	-19046	353	212	139	-193	9	-141	62119
-12563	-20997	359	215	136	-192	9	-138	62182
-12479	-19208	358	217	138	-191	6	-136	62275
-12294	-18981	356	212	140	-190	0	-136	62307
-13072	-18620	355	214	139	-188	3	-140	62587
-12586	-18914	357	214	141	-190	5	-138	62665
-12854	-18856	356	211	141	-190	8	-140	62728
-12616	-19662	356	218	138	-191	6	-137	62806
-15048	-19086	357	212	139	-191	5	-138	62931
-16319	-18265	357	216	139	-187	7	-139	62931
-13205	-21117	356	215	137	-188	4	-138	63133
-12575	-19296	357	215	142	-190	5	-142	63336
-12447	-18561	358	213	141	-197	8	-140	63477
-13204	-18437	356	208	136	-191	6	-145	63555
-13717	-18931	356	213	141	-189	4	-138	63648
-11625	-18722	356	216	140	-190	5	-137	63835
-13128	-19902	357	218	141	-192	9	-141	63945
-13328	-18479	358	216	139	-191	9	-140	64007
-13402	-18581	357	213	136	-190	4	-138	64101
-13730	-18576	357	214	140	-191	8	-137	64335
-12071	-19609	354	215	140	-190	6	-137	64428
-13393	-18810	358	215	139	-193	5	-138	64569
-16413	-19136	359	214	140	-192	6	-140	64631
-12267	-19020	357	217	139	-189	6	-135	64834
-12846	-19598	354	213	140	-189	7	-142	65037
-12230	-19219	353	217	141	-191	6	-139	65068
-13456	-20029	356	215	137	-192	4	-140	65115
-12395	-19305	356	215	139	-192	5	-139	65161
-12207	-18715	357	215	141	-192	8	-143	65411
-12746	-18479	355	215	139	-190	6	-139	65567
-13762	-19246	356	217	139	-193	7	-139	65645
-12029	-19202	358	214	141	-189	-1	-137	65692
-12099	-18868	356	217	137	-189	6	-139	65754
-16697	-20073	357	211	139	-191	2	-140	65895
-12299	-19333	355	215	140	-192	4	-138	65957
-13417	-20493	356	216	140	-191	4	-140	66066
-14966	-18838	355	214	136	-188	4	-143	66097
-12944	-19294	350	217	139	-190	4	-136	66113
-12753	-19103	358	218	140	-188	8	-139	66222
-12501	-18991	357	211	141	-191	6	-136	66269
-12986	-18995	356	215	139	-190	1	-138	66269
-12336	-18887	358	214	141	-191	3	-138	66706
-12899	-19007	359	216	143	-189	6	-139	66924
-13855	-19173	357	214	141	-189	4	-141	67065
-14427	-19237	350	213	136	-190	4	-140	67080
-12210	-18783	357	214	138	-190	2	-135	67189
-12279	-18974	359	216	140	-193	4	-139	67330
-13351	-19141	355	215	141	-194	4	-141	67408
-12982	-19483	354	214	140	-188	7	-139	67423
-13306	-20087	353	216	140	-191	4	-141	67455
-13440	-19739	356	217	139	-192	-1	-138	67517
-12589	-20621	357	216	141	-191	2	-136	67611
-13337	-19002	357	214	139	-190	5	-138	67767
-12821	-19094	356	217	139	-191	4	-142	67813
-13381	-18905	358	216	140	-190	1	-139	68094
-12121	-19311	357	215	138	-191	4	-139	68125
-15023	-18667	358	216	138	-191	2	-138	68141
-12803	-18903	357	217	138	-189	4	-139	68157
-13434	-19520	353	214	139	-189	3	-138	68157
-13361	-19994	354	216	137	-194	-2	-138	68391
-12627	-18715	357	214	136	-191	1	-139	68500
-16340	-19217	356	218	139	-192	4	-139	68500
-13718	-19902	356	216	140	-190	5	-137	68718
-12766	-19429	356	215	140	-191	4	-141	68796
-12322	-19691	356	216	139	-191	6	-141	69046
-12780	-19828	356	214	141	-191	3	-138	69186
-11906	-18630	357	216	142	-192	5	-139	69467
-13395	-19301	356	218	142	-189	4	-139	69467
-12351	-19733	357	217	140	-195	3	-139	69483
-12644	-18907	355	216	142	-195	7	-138	69545
-13081	-18635	353	217	144	-190	6	-138	69639
-12231	-19671	357	212	140	-190	7	-137	69670
10665	-18812	352	217	140	-191	5	-144	69732
-13924	-20003	354	215	141	-191	5	-140	69841
-13289	-19379	357	214	141	-191	4	-141	69951
-13652	-19288	352	215	141	-189	6	-140	70013
-12069	-19527	355	218	141	-194	4	-141	70091
-16460	-21232	352	216	139	-192	4	-137	70122
-12632	-18763	356	215	142	-191	6	-142	70247
-13123	-18974	355	215	142	-191	5	-137	70309
-12887	-18161	353	213	140	-194	4	-140	70325
-13112	-18716	357	215	142	-195	1	-138	70341
-14076	-18541	355	218	140	-190	5	-141	70403
-14041	-19428	356	218	140	-192	5	-139	70481
-12699	-18675	358	213	140	-190	3	-140	70543
-12070	-18926	353	216	140	-191	5	-143	70762
-11967	-19078	355	215	141	-194	8	-140	70809
-14050	-19231	357	212	141	-191	7	-138	70902
-13360	-18484	357	218	141	-190	2	-140	71089
-13808	-18991	356	211	141	-194	6	-142	71121
-10169	-19202	355	217	139	-189	6	-141	71199
-15280	-19414	355	217	139	-191	8	-139	71230
-13136	-19318	354	217	137	-190	10	-137	71245
-12861	-18913	356	216	138	-192	6	-137	71277
-13394	-19028	353	213	140	-191	5	-137	71323
-14237	-18099	356	217	139	-191	4	-136	71323
-12298	-18429	354	217	139	-191	5	-137	71355
-12505	-19730	356	217	141	-192	6	-138	71417
-12285	-18781	356	215	136	-190	1	-138	71433
-13749	-19215	357	214	141	-192	2	-139	71526
-12491	-19043	358	216	142	-192	3	-141	71589
-12947	-18161	352	214	142	-193	8	-140	71682
-15242	-18732	354	216	140	-192	4	-138	71885
-11759	-18928	356	217	138	-190	4	-137	72181
-13644	-19345	355	213	138	-192	6	-137	72571
-11987	-18683	356	216	141	-190	8	-137	72665
-14837	-19245	355	214	143	-189	5	-138	72743
-13359	-18593	356	214	137	-192	6	-138	73133
-12829	-18531	358	213	141	-192	4	-138	73149
-13475	-18867	355	215	142	-189	5	-138	73227
-12967	-18708	354	216	142	-191	5	-141	73242
-12535	-19757	354	217	140	-191	2	-138	73476
-12412	-19989	357	215	142	-190	4	-137	73554
-12838	-19007	356	216	142	-192	6	-138	73617
-12948	-18747	356	215	143	-193	3	-140	73632
-15103	-20948	356	216	141	-190	7	-138	73648
-12063	-18383	354	215	141	-193	4	-138	73663
-12641	-19132	356	215	140	-193	6	-138	73773
-12259	-19333	352	215	138	-194	6	-142	74007
-12680	-19753	359	215	140	-193	5	-140	74022
-16506	-19186	355	214	139	-193	3	-141	74085
-13259	-19295	358	218	142	-192	6	-141	74100
-11815	-18983	358	215	138	-191	1	-141	74116
-16254	-19647	357	216	139	-191	7	-141	74178
-12978	-18335	354	214	140	-194	6	-139	74303
-16162	-19021	355	213	140	-190	4	-139	74350
-12767	-18652	356	217	140	-195	5	-139	74459
-12404	-19619	354	215	140	-190	-1	-139	74615
-13409	-19619	357	213	139	-191	5	-139	74802
-13925	-18977	355	214	138	-192	4	-140	74818
-11661	-19149	357	217	141	-191	4	-141	74880
-12500	-18359	355	217	140	-192	5	-143	74896
-13002	-19209	358	217	141	-192	4	-140	74911
-13294	-18436	358	215	139	-192	4	-138	74958
-12478	-19768	358	218	139	-192	3	-141	74989
-16292	-18876	357	218	137	-188	5	-139	75145
-12931	-19648	355	214	140	-189	4	-141	75177
-13068	-18617	358	215	138	-193	6	-142	75208
-12654	-18337	356	215	140	-189	6	-139	75317
-12807	-18783	354	219	136	-192	6	-141	75442
-13486	-19305	357	213	142	-189	8	-140	75473
-13734	-19366	357	217	139	-190	5	-140	75613
-15994	-19743	357	217	142	-190	8	-142	75863
-13063	-19355	357	217	143	-188	8	-137	75879
-12901	-17229	355	213	139	-191	3	-135	76066
-13245	-18751	358	215	136	-190	4	-139	76191
-13320	-18915	356	216	138	-191	5	-138	76222
-13161	-21097	358	215	140	-192	3	-141	76409
-13192	-18735	354	214	140	-190	10	-138	76456
-12125	-19098	356	216	136	-192	8	-138	76549
-12485	-18098	353	214	139	-188	2	-138	76581
-12037	-18465	358	211	142	-189	6	-137	76659
-13428	-18181	354	214	143	-192	6	-137	76705
-12779	-19356	356	216	141	-191	8	-137	76893
-12643	-18973	356	218	138	-192	5	-139	76908
-12835	-18272	356	215	137	-191	4	-138	76955
-12927	-19150	356	216	139	-191	4	-138	77049
-13525	-18239	354	217	140	-192	7	-137	77049
-12879	-19061	355	215	140	-190	5	-138	77142
-11717	-18085	357	215	141	-192	7	-138	77173
-13201	-18376	353	216	140	-190	4	-139	77329
-13944	-18573	357	212	139	-190	5	-140	77376
-12525	-18959	356	213	138	-190	3	-141	77673
-13362	-20713	357	216	140	-191	8	-139	77735
-12935	-19021	353	214	143	-188	6	-140	77782
-12848	-20421	355	215	141	-195	6	-140	77813
-13068	-20674	353	215	143	-191	5	-139	77938
-12041	-18750	355	216	142	-188	7	-139	78031
-13892	-18636	354	216	137	-192	-1	-139	78172
-11461	-19007	354	214	139	-193	6	-139	78219
-12630	-18374	359	215	141	-191	7	-138	78312
-14200	-19559	355	215	141	-195	5	-140	78328
-12730	-19160	355	212	139	-190	5	-139	78546
-13091	-20691	356	212	139	-194	6	-139	78655
-12498	-19237	353	213	137	-192	2	-140	78671
-14919	-19390	357	210	136	-193	6	-144	78765
-12427	-18847	357	216	141	-194	9	-139	78796
-13660	-18078	357	215	136	-191	8	-139	79108
-13080	-19005	356	214	140	-192	6	-138	79217
-11798	-18860	354	213	137	-191	2	-139	79373
-12076	-20344	355	216	140	-192	7	-140	79607
-12749	-19136	356	214	140	-192	7	-140	79638
-12491	-19064	355	212	141	-192	5	-138	79669
-16136	-18857	353	214	141	-190	4	-139	79747
-13246	-20741	356	214	142	-192	4	-140	79950
-14823	-18867	356	217	140	-190	5	-136	80044
-14014	-19589	356	215	140	-191	7	-137	80075
-12971	-18980	357	215	139	-190	7	-137	80340
-13247	-21153	357	219	140	-187	3	-141	80528
-12539	-19191	355	213	137	-192	4	-139	80715
-12675	-18858	358	215	142	-192	2	-140	80777
-12500	-19442	355	217	138	-192	4	-139	80871
-11838	-20260	358	216	138	-192	4	-136	81027
-12115	-19487	353	218	139	-190	7	-137	81136
-14654	-18915	356	214	137	-193	8	-139	81354
-12429	-18969	356	215	138	-191	5	-141	81666
-12886	-19306	354	213	137	-192	5	-139	81682
-12179	-19751	357	214	138	-191	8	-141	81791
-13637	-19421	356	218	141	-192	8	-140	81838
-12246	-20058	357	217	140	-192	7	-141	82119
-12401	-19862	358	217	138	-191	6	-138	82134
-12369	-19408	356	215	138	-191	5	-138	82150
-12376	-18567	349	216	141	-192	6	-139	82150
-13113	-19934	359	211	138	-190	7	-138	82197
-12973	-20168	357	217	138	-192	3	-139	82571
-13138	-19096	358	215	138	-192	4	-142	82680
-12447	-18974	356	210	139	-191	6	-142	82712
-13074	-18653	357	216	142	-191	6	-137	82712
-12891	-19098	359	215	142	-191	3	-139	82743
-11219	-18611	356	217	138	-193	7	-138	82805
-14320	-19472	355	215	141	-190	5	-139	82977
-12964	-18622	357	215	139	-190	8	-141	83039
-13246	-19727	356	213	139	-189	8	-137	83039
-11892	-19606	355	216	140	-192	5	-140	83242
-12209	-18769	354	217	139	-191	3	-138	83258
-12782	-18462	356	214	137	-191	3	-141	83273
-12206	-18966	356	214	140	-189	0	-138	83289
-11888	-20095	358	219	140	-192	8	-137	83304
-12712	-18789	357	216	140	-189	9	-138	83445
-12686	-17194	355	216	141	-191	4	-137	83554
-12942	-20279	355	215	140	-190	4	-142	83585
-12481	-18053	355	216	141	-193	3	-140	83804
-15056	-19046	358	214	141	-189	2	-140	83819
-12901	-19068	356	214	140	-192	4	-137	83866
-12735	-19211	358	213	142	-191	8	-140	84178
-12572	-18988	357	215	140	-195	3	-138	84350
-13144	-18803	357	217	138	-193	6	-137	84443
-12889	-18202	352	213	140	-191	4	-141	84506
-12457	-18962	355	217	142	-191	6	-140	84537
-12463	-19093	358	214	141	-191	3	-139	84568
-13479	-18776	353	216	140	-192	5	-135	84693
-13236	-18979	356	216	138	-193	1	-137	84786
-12895	-18906	357	216	140	-192	7	-138	85005
-12644	-19050	354	213	142	-190	5	-139	85083
-14385	-19261	356	218	138	-189	5	-140	85270
-13360	-19053	355	218	139	-193	7	-136	85286
-12870	-18991	352	214	136	-192	7	-138	85348
-13230	-19315	354	216	139	-193	5	-136	85410
-12032	-19478	354	214	140	-189	5	-137	85473
-13277	-18875	356	218	138	-187	1	-137	85660
-14068	-18340	354	217	139	-190	7	-138	86019
-11784	-19232	356	215	139	-195	3	-138	86066
-13074	-18812	355	218	140	-190	6	-138	86144
-13222	-19081	354	217	138	-194	7	-136	86331
-12275	-18833	355	215	140	-191	5	-139	86362
-12151	-19377	357	217	141	-190	1	-137	86596
-12531	-19223	355	215	139	-192	4	-138	86627
-13369	-18901	356	217	137	-190	2	-138	86736
-13156	-17797	355	217	138	-190	7	-138	86783
-13452	-19963	358	213	140	-188	6	-139	86861
-13078	-19134	357	215	139	-194	7	-139	87111
-12927	-18969	355	216	141	-189	3	-138	87189
-13794	-18732	357	216	140	-192	8	-140	87267
-12550	-19066	358	216	140	-191	1	-139	87282
-13157	-20644	358	218	139	-189	4	-138	87407
-13514	-20921	358	213	140	-193	6	-140	87594
-12809	-18910	355	217	138	-194	5	-136	87672
-12959	-18843	355	214	138	-191	1	-138	87813
-13943	-18829	354	212	139	-189	5	-141	87860
-13588	-18985	356	215	139	-191	6	-137	87891
-12523	-18745	355	212	139	-192	3	-138	88016
-12359	-19804	355	217	137	-189	6	-137	88078
-12423	-18696	354	215	138	-192	6	-137	88250
-12895	-18977	354	216	139	-193	7	-138	88437
-14142	-19066	354	216	139	-193	7	-142	88858
-12177	-19365	356	214	140	-193	6	-142	88936
-13233	-18892	356	216	138	-189	4	-139	88998
-13230	-18734	356	211	137	-191	5	-138	89264
-11237	-19224	355	216	138	-195	2	-137	89310
-13078	-18425	357	214	140	-192	9	-138	89388
-13960	-19246	358	215	141	-192	5	-136	89482
-11810	-19063	355	213	138	-191	5	-139	89638
-13155	-18930	355	216	139	-193	7	-137	89716
-12774	-19344	356	214	143	-191	7	-138	89778
-12613	-18676	358	215	139	-190	10	-146	89841
-13596	-18626	358	214	139	-191	8	-139	89903
-12504	-19046	356	218	139	-193	6	-138	89903
-13010	-18643	357	214	141	-192	5	-138	90059
-12388	-19987	358	214	138	-190	5	-140	90075
-13269	-20083	355	213	141	-190	6	-136	90200
-12789	-19380	357	217	138	-193	5	-141	90512
-11786	-18544	356	216	137	-194	4	-137	90574
-12328	-19607	357	214	137	-193	3	-141	90636
-12891	-19112	355	217	137	-190	6	-137	90699
-12210	-18669	356	214	137	-191	4	-136	91151
-12666	-19583	361	217	136	-190	4	-141	91292
-12787	-18800	358	212	139	-189	5	-142	91479
-12754	-20445	357	217	138	-193	6	-139	91619
-14301	-19950	359	218	139	-192	0	-138	91635
-13446	-19028	357	218	136	-192	5	-140	91650
-13089	-19643	358	216	140	-189	7	-138	91713
-13493	-18787	358	216	139	-190	7	-138	91822
-12045	-18471	354	217	138	-190	5	-138	92056
-12840	-19199	354	215	137	-191	2	-142	92571
-12822	-19426	356	215	140	-193	6	-140	92774
-12750	-20828	355	215	138	-190	1	-140	92805
-11791	-19055	358	215	139	-188	6	-139	92945
-13494	-19098	358	220	138	-190	2	-139	93179
-12721	-19006	358	214	139	-195	2	-142	93226
-13680	-18190	353	217	141	-190	3	-140	93366
-13587	-18567	358	212	137	-192	6	-137	93491
-12274	-18674	357	216	141	-190	7	-142	93632
-15029	-18747	358	219	139	-190	2	-140	93725
-12701	-20516	358	220	141	-189	6	-139	93756
-12778	-19088	356	217	142	-189	4	-140	94458
-12937	-18834	357	216	138	-189	8	-137	94568
-12891	-19307	358	219	139	-191	5	-136	94677
-13142	-19081	358	214	141	-190	3	-138	94692
-12734	-18965	358	218	140	-191	1	-140	94724
-15454	-19569	355	216	139	-191	8	-143	94724
-13991	-19192	355	216	141	-191	6	-139	94755
-13615	-19276	357	217	139	-192	4	-139	94770
-13261	-18891	357	213	139	-193	7	-141	94833
-13580	-19447	358	216	138	-192	3	-140	94833
-13823	-19021	358	214	139	-193	3	-138	94864
-12706	-19217	361	214	138	-188	6	-137	94973
-13243	-18424	356	216	139	-194	4	-141	95176
-12598	-18638	357	213	138	-190	4	-140	95363
-12551	-20024	357	215	140	-192	5	-137	95472
-13599	-19393	358	215	139	-191	6	-139	95550
-12520	-20573	356	212	140	-191	3	-139	95628
-13921	-18755	356	218	140	-191	5	-138	95644
-13583	-20586	353	212	137	-192	4	-138	95769
-13031	-18840	358	217	138	-192	1	-137	95987
-13919	-18826	356	215	140	-195	5	-140	96081
-12648	-18398	352	219	138	-194	4	-136	96174
-13127	-19889	358	217	137	-191	3	-138	96174
-11240	-19133	357	216	139	-191	0	-136	96190
-12252	-18742	351	218	140	-194	6	-146	96237
-14051	-18925	356	215	138	-190	0	-139	96268
-12763	-18911	357	216	141	-191	6	-137	96533
-13344	-19198	357	214	140	-190	7	-139	96549
-13650	-18844	355	216	139	-189	4	-138	96549
-12001	-7895	355	217	141	-191	6	-137	96611
-12736	-20217	355	217	139	-190	6	-138	96876
-11873	-17822	355	213	139	-190	6	-138	97126
-13538	-4024	354	219	138	-192	5	-139	97157
-14427	-19071	358	218	138	-189	4	-139	97298
-12564	-20225	354	217	140	-194	5	-138	97329
-13484	-19390	356	216	140	-196	5	-141	97376
-11762	-19148	357	212	139	-190	3	-137	97407
-14029	-19828	355	214	140	-195	6	-138	97422
-12740	-19119	355	217	139	-192	7	-139	97485
-12951	-18893	358	216	137	-190	4	-136	97500
-11948	-18894	356	217	140	-193	5	-139	97516
-12873	-18956	355	216	139	-192	4	-138	97532
-12584	-18960	352	216	142	-191	4	-140	97625
-13879	-19157	355	215	138	-193	5	-139	97750
-13009	-20489	358	218	137	-195	4	-138	97781
-12983	-18845	356	215	142	-190	8	-139	97922
-12790	-20490	356	217	140	-192	5	-142	98000
-13275	-19304	355	217	139	-193	7	-140	98062
-13243	-19924	355	215	139	-193	6	-141	98062
-13780	-18205	358	215	136	-191	5	-136	98234
-12632	-19058	354	215	138	-191	5	-140	98421
-11954	-18577	357	216	137	-189	6	-139	98483
-13379	-18549	358	214	136	-193	8	-138	98514
-13067	-19235	354	216	141	-190	0	-137	98514
-14199	-19106	355	217	141	-189	3	-140	98530
-16099	-18704	357	211	142	-193	5	-137	98670
-12558	-19615	356	214	136	-194	2	-138	98702
-13501	-18803	357	214	137	-193	5	-142	98764
-13339	-19088	358	218	139	-191	7	-138	98780
-12697	-19571	356	217	137	-190	5	-140	98873
-13493	-18713	356	217	140	-189	8	-143	98936
-12932	-19071	357	214	136	-191	6	-140	98967
-16469	-18916	357	216	138	-191	4	-142	99138
-12368	-19134	356	219	140	-191	2	-141	99216
-12317	-20065	355	215	138	-192	3	-137	99279
-11431	-18619	357	216	138	-188	8	-137	99326
-12521	-18733	354	217	141	-191	2	-138	99388
-13715	-18919	358	213	141	-192	5	-138	99544
-13435	-20145	353	215	138	-192	5	-138	99669
-13869	-18920	353	216	139	-192	5	-141	99903
-13023	-18454	355	212	139	-188	5	-137	99950
-14863	-18841	355	217	139	-193	6	-139	100106
-13154	-18995	354	217	140	-192	8	-138	100184
-10947	-18284	356	216	142	-190	6	-140	100199
-16156	-19498	353	217	138	-192	-1	-141	100230
-12796	-18763	357	217	141	-192	4	-140	100246
-13398	-18166	352	213	138	-192	5	-137	100262
-13083	-19219	354	217	139	-188	5	-140	100418
-12702	-18970	356	213	138	-190	5	-136	100542
-14029	-19542	356	213	138	-191	0	-140	100589
-11593	-19513	355	214	140	-190	2	-144	100620
-13756	-18659	354	215	141	-191	1	-138	100667
-12572	-19146	355	214	140	-190	5	-138	100823
-12060	-18633	352	214	140	-195	5	-141	100854
-16899	-19220	356	217	141	-192	6	-141	100901
-12341	-18773	357	215	140	-190	6	-140	100979
-13548	-20600	357	215	142	-190	5	-138	101322
-12361	-19304	359	216	142	-191	0	-138	101354
-13720	-19567	356	216	137	-188	6	-139	101666
-13334	-18756	355	215	140	-193	5	-138	101790
-15331	-18665	356	214	141	-192	6	-135	101837
-12818	-19381	357	215	140	-192	4	-138	101900
-13636	-19320	359	218	142	-192	7	-142	101931
-13281	-18908	352	215	140	-191	5	-137	102118
-15618	-19615	358	216	139	-191	5	-138	102134
-13009	-18637	352	215	140	-191	4	-140	102258
-14351	-19156	357	216	140	-191	6	-140	102290
-12978	-18957	357	217	138	-190	2	-140	102290
-12558	-18371	354	216	137	-191	6	-143	102352
-13730	-18562	354	213	138	-193	5	-138	102508
-14790	-18727	356	216	138	-192	3	-138	102570
-13185	-18875	358	216	140	-190	1	-140	102633
-12480	-18748	355	216	139	-189	4	-140	102773
-12574	-18917	358	213	143	-193	7	-139	102851
-13565	-18948	354	214	139	-191	1	-142	102851
-13410	-18390	356	216	138	-192	5	-136	102914
-12598	-19598	354	217	140	-188	4	-138	103054
-12119	-18754	358	216	139	-191	4	-141	103179
-13348	-19192	356	215	140	-189	6	-138	103257
-13896	-18591	357	217	139	-189	5	-140	103335
-13517	-19581	354	212	140	-193	7	-137	103366
-13991	-19301	354	212	138	-192	3	-139	103413
-5647	-18804	356	214	139	-192	3	-137	103475
-14302	-18928	353	216	139	-192	1	-138	103491
-12793	-19150	356	216	141	-193	3	-137	103600
-13822	-18537	359	216	139	-190	6	-138	103616
-13261	-19261	356	215	138	-190	6	-140	104286
-13361	-18849	353	215	139	-191	6	-140	104302
-12463	-20254	356	215	140	-193	8	-136	104318
-12287	-18671	358	214	142	-190	1	-137	104442
-12936	-18908	357	214	139	-192	3	-138	104489
-12374	-19225	354	217	139	-190	7	-138	104552
-14457	-19526	355	217	139	-190	5	-139	104567
-13250	-18771	357	215	141	-193	6	-141	104583
-13152	-18658	354	214	139	-193	5	-138	104614
-12249	-18758	356	219	140	-192	3	-141	104676
-12383	-19292	356	220	141	-191	5	-138	104708
-12246	-20158	359	215	139	-192	6	-142	104723
-12605	-19544	355	214	140	-191	5	-139	104786
-12772	-19785	356	214	141	-192	6	-141	104801
-12733	-19393	357	214	138	-191	4	-138	104988
-13105	-19305	358	215	138	-193	6	-140	105129
-13110	-18621	358	213	140	-191	3	-139	105347
-15468	-19031	355	217	139	-191	4	-140	105363
-13052	-18007	357	216	139	-191	2	-139	105378
-12709	-18999	358	216	139	-192	3	-141	105472
-12072	-17672	357	215	138	-195	2	-142	105488
-12852	-19171	355	214	141	-197	3	-140	105519
-12049	-18675	357	214	138	-191	6	-141	105581
-11251	-18715	358	213	136	-191	7	-140	105659
-13232	-19761	358	214	138	-192	5	-140	105737
-12204	-18810	355	217	138	-190	5	-139	105800
-12892	-19778	356	213	139	-196	6	-138	105831
-13794	-18332	357	216	139	-193	4	-139	105878
-13106	-19658	358	211	139	-190	5	-137	105878
-11882	-19457	355	215	139	-191	8	-144	105987
-12967	-19193	358	215	136	-191	4	-137	106002
-13592	-18285	357	215	137	-191	3	-139	106112
-12626	-19342	357	217	142	-191	6	-138	106127
-12490	-20154	358	215	141	-190	2	-137	106361
-12764	-18786	355	213	137	-190	3	-137	106392
-12521	-19836	356	215	139	-189	4	-138	106486
-12564	-19367	355	216	141	-190	5	-140	106517
-12553	-18459	357	218	141	-189	7	-145	106580
-13237	-18532	355	217	139	-192	3	-140	106611
-13163	-19294	358	215	138	-191	3	-140	106876
-13155	-18710	355	216	138	-190	4	-138	106892
-12249	-18795	358	216	139	-190	2	-139	107235
-12158	-19434	357	215	139	-190	4	-139	107391
-12356	-17607	355	215	137	-191	1	-138	107469
-16671	-19028	357	218	141	-190	7	-138	107484
-12352	-19614	358	211	140	-193	2	-140	107516
-11139	-19780	357	215	139	-193	3	-139	107703
-13276	-19044	358	216	140	-189	4	-140	107843
-12526	-19641	354	216	140	-192	6	-142	107984
-13051	-18898	360	212	142	-190	6	-140	108093
-12277	-18905	356	211	141	-194	3	-139	108124
-13311	-19116	358	216	137	-192	2	-136	108452
-12296	-18473	353	214	139	-191	7	-138	108530
-13100	-19242	359	215	139	-191	3	-137	108545
-13910	-18407	355	213	140	-191	5	-139	108701
-13605	-19341	355	215	140	-190	4	-134	108764
-10640	-19031	358	216	142	-192	6	-137	108795
-12991	-18922	357	216	141	-192	6	-138	108873
-13047	-19238	356	216	138	-191	3	-139	108920
-13647	-19078	355	213	140	-190	4	-139	108951
-11330	-18349	354	217	142	-190	3	-141	109247
-13740	-19873	355	213	138	-190	7	-137	109450
-12081	-19438	355	214	140	-193	6	-140	109466
-13458	-18093	356	217	141	-189	3	-137	109575
-12514	-18869	356	212	139	-188	6	-141	109590
-13067	-19928	356	217	138	-195	5	-136	109840
-13363	-18579	355	217	139	-192	7	-140	109934
-12777	-19034	356	214	141	-193	3	-139	109949
-12713	-19565	354	215	138	-191	6	-141	110277
-13243	-18773	356	213	141	-189	7	-138	110292
-13559	-19034	356	217	141	-191	6	-138	110402
-12864	-20850	351	215	138	-194	6	-139	110558
-13257	-19664	355	216	137	-191	4	-141	110573
-15093	-19875	357	218	140	-188	5	-137	110604
-14489	-19388	356	213	139	-191	6	-139	110651
-12976	-18361	356	212	140	-190	4	-140	110698
-13143	-18336	358	214	140	-190	3	-139	110932
-12463	-19289	356	216	140	-195	6	-139	111104
-12467	-18710	360	218	137	-189	6	-139	111338
-12830	-20084	359	216	139	-191	6	-138	111463
-13138	-18476	359	216	140	-192	8	-140	111525
-13947	-18797	359	215	142	-189	5	-140	111525
-13941	-18680	355	216	138	-191	4	-141	111603
-13365	-18816	357	217	143	-189	5	-139	111712
-13470	-19167	354	217	137	-191	5	-142	111712
-12584	-19806	353	218	138	-190	6	-141	111993
-12767	-18626	356	216	142	-192	3	-138	112055
-14686	-19404	355	215	140	-192	4	-139	112102
-12505	-18517	352	216	139	-189	2	-139	112352
-12008	-18733	354	212	136	-192	5	-142	112430
-16065	-20250	356	216	138	-192	7	-140	112461
-13109	-18536	356	212	141	-190	2	-137	112477
-14883	-18981	355	217	142	-193	5	-136	112523
-12300	-19245	354	216	139	-196	5	-137	112601
-12591	-18222	357	213	141	-192	6	-138	112664
-12523	-19105	356	218	136	-192	5	-139	112695
-13466	-18714	353	214	140	-188	8	-141	112820
-11328	-14446	353	217	140	-190	8	-140	113163
-12741	-18744	354	216	140	-190	2	-139	113194
-12343	-21102	355	215	139	-191	3	-140	113381
-13495	-19294	356	212	141	-192	5	-141	113397
-12242	-19230	355	215	141	-193	7	-137	113475
-13422	-19049	355	214	140	-193	5	-138	113522
-13805	-18727	355	217	140	-192	4	-139	113678
-13432	-20092	356	214	137	-192	5	-137	113771
-13316	-19206	355	215	140	-190	6	-141	113881
-12981	-18196	357	214	139	-192	7	-142	113959
-12921	-19570	354	215	139	-190	8	-137	114037
-13029	-18595	354	218	137	-189	1	-138	114208
-14694	-18894	356	218	140	-190	0	-141	114224
-13640	-18257	356	215	139	-192	4	-140	114395
-13387	-20594	356	217	138	-191	3	-140	114395
-12967	-19019	351	215	137	-191	5	-138	114505
-12517	-18651	355	220	139	-193	4	-140	114661
-13351	-19387	353	216	139	-191	4	-138	114707
-12833	-20591	353	216	142	-191	7	-136	114832
-13275	-19459	353	213	139	-189	6	-139	115175
-12841	-19035	355	214	140	-191	5	-139	115175
-13489	-18740	356	216	139	-190	5	-137	115378
-13199	-18927	355	216	139	-191	7	-137	115409
-12899	-18273	356	216	139	-191	6	-138	115612
-12640	-19084	354	215	141	-192	6	-137	115659
-12980	-19489	355	214	138	-191	3	-137	115690
-12591	-19114	353	216	140	-189	3	-138	115706
-12967	-18713	355	215	140	-193	1	-138	115768
-13462	-19946	355	217	143	-191	5	-141	115799
-12993	-18631	357	214	141	-192	2	-136	115815
-12209	-18699	355	217	139	-192	7	-137	116267
-12207	-18752	357	215	138	-192	6	-138	116314
-12866	-19367	351	216	140	-191	4	-139	116533
-12514	-19346	354	215	140	-190	5	-138	116564
-12407	-19780	358	216	138	-188	4	-140	116579
-13176	-20777	354	217	141	-194	6	-143	116689
-13539	-19029	354	215	136	-194	6	-142	116735
-13319	-18956	355	217	139	-192	9	-142	116767
-13257	-18113	357	216	138	-191	5	-137	116798
-13478	-19350	354	219	139	-190	6	-141	116923
9159	-18744	356	217	139	-191	8	-138	117094
-12963	-19379	356	215	141	-194	7	-141	117188
-13195	-19169	357	220	140	-191	6	-138	117188
-12428	-18891	355	217	137	-191	7	-140	117266
-12973	-19047	353	218	140	-191	7	-137	117297
-13479	-19118	354	216	138	-192	1	-139	117297
-13006	-19302	354	219	140	-188	10	-139	117313
-12443	-19089	356	216	138	-191	5	-142	117344
-12449	-18726	355	217	138	-189	6	-138	117422
-12822	-18676	352	216	141	-191	5	-139	117593
-16050	-18646	355	220	139	-192	7	-139	117671
-12535	-18778	356	219	141	-189	5	-139	117671
-13534	-18897	358	218	134	-191	8	-136	117781
-16542	-19759	355	217	139	-193	1	-138	117796
-12945	-18616	357	217	139	-192	4	-137	118046
-12952	-18535	355	218	137	-190	4	-139	118124
-12374	-19179	358	220	138	-192	-1	-137	118155
-12078	-18979	357	216	139	-194	5	-140	118358
-12525	-18912	358	218	138	-190	2	-139	118451
-14252	-19145	356	213	140	-192	1	-139	118467
-13064	-18256	358	215	140	-192	7	-140	118483
-12338	-18772	355	217	138	-192	3	-139	118561
-13452	-19550	354	217	138	-190	2	-138	118576
-12321	-18748	358	218	140	-190	3	-138	118810
-11743	-18577	357	216	139	-191	2	-137	118841
-13090	-19340	356	216	137	-193	1	-138	118857
-14108	-18673	356	215	139	-189	5	-139	118951
-13540	-19096	355	217	137	-190	2	-140	118982
-13513	-18669	358	216	139	-193	3	-139	119044
-13166	-19237	354	215	139	-191	-1	-140	119122
-12691	-19377	356	215	141	-189	8	-139	119341
-13234	-18243	355	218	140	-194	5	-138	119341
-13572	-18472	359	220	142	-194	5	-145	119512
-12574	-19497	357	215	136	-192	4	-139	119731
-13228	-19447	356	219	138	-192	2	-138	119762
-12555	-20277	355	217	138	-190	3	-137	119965
-13781	-18830	355	219	140	-192	3	-137	120105
-13388	-19450	357	218	141	-192	6	-140	120167
-11977	-19081	357	216	142	-192	5	-141	120292
-12817	-19517	356	217	138	-191	2	-138	120339
-12055	-18609	355	221	141	-190	2	-138	120433
-12499	-19593	354	218	139	-188	5	-138	120557
-13706	-18667	350	216	142	-191	5	-141	120620
-13093	-18283	353	217	137	-192	4	-139	120901
-13290	-19674	355	218	138	-191	4	-137	120979
-12959	-18811	357	217	143	-189	6	-137	121197
-12207	-18698	355	218	139	-189	5	-141	121275
-11671	-19062	354	217	139	-192	6	-136	121275
-13490	-19089	354	217	137	-192	3	-139	121337
-13630	-19283	354	218	141	-192	2	-137	121369
-13605	-20698	356	218	138	-193	3	-138	121462
-12838	-19090	358	218	141	-190	0	-136	121478
-11948	-18932	356	218	138	-193	8	-139	121743
-13054	-19517	355	217	138	-191	6	-136	121805
-16698	-19913	356	215	139	-192	5	-141	121837
-12936	-19863	354	216	138	-193	3	-137	121852
-12911	-19179	356	219	141	-191	6	-136	121915
-13149	-19402	356	215	141	-189	6	-143	121961
-12074	-18818	355	212	140	-190	4	-138	121961
-11915	-18730	359	218	142	-193	1	-138	122149
-13177	-19517	356	217	140	-190	6	-138	122305
-12840	-18663	354	217	137	-193	8	-141	122445
-13655	-18682	356	219	135	-192	8	-138	122507
-13131	-19382	357	218	138	-192	6	-137	122570
-13389	-18957	356	216	138	-190	5	-140	122617
-13049	-19473	353	217	138	-190	7	-142	122632
-13182	-18928	356	215	138	-191	7	-138	122648
-12685	-19337	353	216	139	-192	6	-138	122944
-13508	-18586	355	219	139	-196	4	-136	122975
-12833	-18511	352	217	140	-191	1	-140	122991
-12586	-18234	354	217	138	-192	2	-137	123053
-12931	-18966	356	216	141	-191	0	-137	123225
-12173	-20380	357	218	138	-192	7	-137	123350
-12196	-18719	355	214	140	-191	6	-139	123428
-12810	-19060	358	218	142	-191	6	-138	123443
-12587	-19495	355	216	138	-190	4	-143	123537
-12408	-18831	356	217	139	-192	7	-139	123631
-12281	-18989	354	215	138	-189	4	-136	123755
-13515	-19177	356	214	138	-191	3	-142	123896
-13156	-21045	353	217	136	-192	2	-140	123974
-13227	-18343	356	218	137	-191	4	-138	124161
-13964	-19655	354	216	140	-190	2	-139	124208
-13048	-19137	356	216	141	-191	5	-139	124364
-11635	-19232	356	216	140	-191	5	-137	124426
-14346	-18817	356	214	138	-191	3	-142	124473
-13182	-19359	353	216	140	-190	5	-138	124613
-13263	-18523	354	218	138	-191	4	-138	124847
-13354	-18984	358	216	142	-192	4	-137	124941
-12373	-19653	355	215	138	-191	4	-139	125003
-12581	-18803	352	218	141	-190	5	-139	125066
-13328	-18875	354	215	141	-188	6	-140	125081
-13122	-18231	353	215	136	-190	7	-139	125144
-13080	-18703	354	213	140	-188	5	-138	125191
-12848	-18763	355	217	140	-188	3	-139	125315
-12695	-19563	359	217	136	-188	3	-142	125425
-13544	-19528	356	215	140	-190	4	-140	125596
-11764	-18789	356	216	140	-191	4	-138	125643
-12667	-19046	356	213	139	-193	5	-138	125705
-14408	-20869	354	215	141	-191	5	-139	125721
-12309	-19234	355	216	140	-191	2	-139	125830
-13226	-19096	353	213	136	-190	5	-138	125971
-12429	-19308	355	213	141	-191	3	-139	126454
-13035	-18345	354	217	138	-192	4	-139	126548
-12812	-18601	358	214	138	-189	5	-139	126641
-12756	-18750	356	217	140	-194	3	-138	126673
-13580	-18695	357	217	139	-191	3	-138	126766
-12290	-19486	356	219	136	-189	7	-139	126829
-13191	-18898	353	212	142	-191	4	-141	126938
-15266	-20204	355	216	136	-190	6	-143	127016
-12302	-19429	357	217	137	-190	5	-144	127094
-12568	-19137	355	213	139	-192	3	-137	127141
-11584	-18790	356	216	138	-192	7	-136	127390
-12327	-18967	355	216	141	-191	4	-139	127453
-11921	-20776	358	216	140	-190	3	-137	127609
-12620	-19099	355	217	136	-192	2	-140	127640
-14261	-19063	355	220	138	-193	7	-139	127655
-12885	-18491	354	217	137	-193	3	-138	127671
-13723	-20579	354	215	140	-191	4	-139	127687
-12618	-20993	355	213	137	-191	5	-138	127858
-12993	-19386	359	218	139	-188	4	-139	127952
-16082	-19015	356	213	135	-191	5	-137	127999
-12788	-19310	358	215	138	-190	5	-137	128092
-15740	-18883	356	214	140	-191	6	-139	128201
-13371	-18910	355	218	138	-193	4	-138	128264
-12810	-19125	355	217	139	-194	-1	-140	128311
-13197	-19116	357	213	138	-191	2	-140	128420
-11500	-18294	354	217	139	-188	6	-137	128482
-13502	-18904	356	215	139	-191	4	-138	128888
-12428	-18977	359	213	137	-190	2	-140	128997
-13450	-19164	354	212	138	-190	6	-136	129325
-12306	-18415	355	214	138	-192	4	-144	129418
-13873	-19085	358	215	140	-189	3	-138	129543
-12042	-18450	356	215	141	-195	5	-137	129668
-13512	-18139	355	215	137	-191	4	-138	129699
-13148	-18890	358	213	143	-191	1	-139	129746
-13228	-18717	356	218	138	-190	4	-138	129793
-13672	-18374	356	216	135	-194	6	-138	129855
-13089	-18907	355	217	137	-194	5	-136	129917
-13180	-18644	358	214	138	-189	5	-138	130136
-13045	-18737	356	213	138	-190	2	-142	130183
-13478	-19121	358	213	141	-189	1	-136	130292
-12863	-19547	357	219	141	-189	6	-139	130385
-13264	-19317	357	215	138	-194	3	-140	130510
-12777	-19594	358	217	138	-188	5	-138	130557
-12865	-18689	355	215	138	-191	5	-138	130651
-12922	-18837	357	217	141	-194	9	-141	130697
-13629	-19144	355	219	139	-192	7	-140	130713
-11557	-18784	356	215	139	-190	3	-139	130869
-14223	-18650	357	215	136	-190	5	-140	130931
-13390	-19557	356	212	134	-191	3	-142	130994
-12377	-18704	350	216	139	-189	4	-140	130994
-13655	-19067	357	218	140	-190	7	-139	131072
-13085	-19543	356	217	138	-189	5	-140	131134
-12325	-19431	356	218	137	-190	2	-139	131306
-12278	-19167	358	216	138	-189	5	-138	131524
-13300	-19178	357	218	138	-193	1	-138	131727
-11725	-19309	357	217	140	-190	1	-144	131805
-12685	-19234	354	215	139	-192	3	-139	131821
-12528	-18929	358	218	142	-189	5	-140	132101
-11210	-18869	355	216	140	-191	5	-140	132195
-12708	-18976	353	215	136	-191	1	-138	132429
-13397	-19412	355	218	140	-192	7	-137	132507
-12754	-17100	357	218	138	-192	5	-136	132523
-13173	-19097	356	215	139	-194	5	-138	132663
-12496	-18704	353	214	140	-192	6	-138	132835
-12981	-19250	355	216	141	-191	4	-138	132850
-12550	-19093	354	218	139	-190	5	-138	132866
-13310	-18642	350	212	142	-190	3	-136	133022
-13136	-19315	354	214	141	-196	4	-140	133131
-14861	-19059	358	217	139	-193	1	-138	133193
-13536	-19759	354	216	137	-192	2	-139	133271
-12610	-18976	356	217	139	-191	5	-139	133287
-12695	-18460	356	217	139	-190	2	-137	133318
-10832	-19023	356	217	140	-190	5	-139	133365
-13720	-18861	356	215	139	-196	4	-140	133443
-13603	-18664	356	216	139	-189	5	-141	133739
-12695	-19163	358	217	140	-190	5	-136	133880
-12913	-19381	357	215	142	-189	5	-142	133958
-12752	-19652	350	217	139	-191	4	-138	134036
-12721	-18981	351	218	143	-191	1	-136	134083
-12542	-18806	358	217	143	-190	1	-138	134098
-13053	-20950	358	217	142	-188	4	-141	134192
-12581	-18611	353	211	141	-192	1	-138	134504
-12576	-19045	357	218	140	-191	4	-137	134582
-12049	-20477	357	217	143	-190	7	-141	134613
-9296	-19042	352	213	140	-190	4	-142	134691
-12968	-19549	357	217	141	-192	6	-142	134831
-12045	-18848	354	217	141	-190	2	-141	134894
-15238	-18821	352	216	140	-193	5	-138	134925
-16783	-19097	356	218	143	-191	2	-137	135019
-12704	-18733	355	219	140	-191	6	-139	135034
-13085	-18417	355	213	141	-191	5	-141	135097
-12426	-18479	356	218	139	-189	3	-137	135128
-12404	-19579	356	218	141	-189	5	-142	135175
-13609	-19234	356	217	138	-190	5	-139	135206
-12923	-18746	357	218	138	-189	3	-138	135268
-14767	-18611	356	217	141	-194	3	-138	135549
-13729	-19248	356	216	141	-192	6	-142	135643
-11561	-18703	356	219	141	-189	4	-140	135658
-13872	-18844	357	216	140	-191	3	-136	135705
-11960	-19276	357	213	139	-189	-1	-138	136001
-14569	-18562	357	218	138	-190	4	-135	136095
-12477	-18895	354	217	141	-192	4	-136	136111
9063	-19290	355	216	140	-192	4	-140	136220
-12471	-20884	353	208	139	-192	5	-139	136360
-14501	-18837	355	217	141	-190	7	-140	136376
-12955	-19005	353	217	140	-191	5	-138	136438
-12584	-19553	353	215	140	-193	5	-140	136501
-13134	-19295	354	218	145	-191	2	-137	136547
-11671	-18955	354	216	142	-192	5	-140	136672
-12596	-18451	353	215	140	-193	5	-138	136766
-13099	-19066	355	217	139	-189	5	-138	136906
-12764	-19469	358	219	140	-189	6	-138	136922
-12612	-19795	355	217	141	-194	4	-141	137296
-12845	-19326	353	218	139	-192	4	-137	137327
-13590	-19198	356	216	143	-194	6	-139	137327
-12845	-19023	353	215	140	-190	6	-139	137530
-13471	-20554	351	216	137	-191	6	-139	137655
-12894	-19559	356	218	138	-192	3	-145	137717
-12633	-18121	357	217	139	-192	0	-140	137733
-14597	-18856	356	215	139	-192	4	-141	137749
-16889	-18555	353	218	140	-189	5	-138	137764
-12980	-19094	356	213	141	-187	2	-139	138341
-13647	-20180	353	216	143	-193	6	-138	138419
-14287	-19286	357	215	136	-191	5	-139	138497
-12939	-19446	356	216	142	-189	3	-140	138591
-15798	-19143	355	216	140	-189	4	-139	138653
-13376	-19172	356	216	141	-190	4	-141	138669
-12281	-20448	352	210	137	-192	3	-139	138903
-11752	-18110	353	211	138	-191	5	-139	139340
-12444	-18958	352	213	138	-193	2	-140	139433
-12633	-18733	353	217	140	-191	3	-140	139496
-13633	-19744	355	213	139	-191	1	-142	139605
-13517	-19375	353	212	140	-189	5	-137	139621
-13147	-19920	353	215	140	-189	3	-139	139652
-12134	-19704	353	218	143	-189	2	-141	139667
-13227	-19735	353	218	139	-189	4	-144	139714
-13500	-19909	353	215	141	-193	7	-141	140073
-13688	-18813	355	212	140	-191	8	-144	140213
-13097	-18450	355	216	137	-196	4	-139	140479
-11703	-19288	358	216	141	-190	2	-138	140588
-13176	-19577	355	217	137	-189	6	-140	140635
-11902	-20225	357	218	139	-191	7	-140	140837
-13150	-18511	356	216	140	-191	4	-143	140853
-12998	-18357	356	215	139	-197	5	-140	140869
-12581	-18578	354	214	139	-192	4	-142	140978
-13124	-19581	357	215	139	-192	0	-140	141103
-13928	-18714	357	213	139	-191	4	-139	141149
-13289	-18544	354	215	141	-193	3	-138	141243
-14775	-20117	355	215	141	-192	3	-139	141274
-12563	-18527	352	217	139	-191	6	-139	141321
-11764	-19472	355	218	141	-192	2	-139	141555
-13304	-18710	353	213	140	-191	4	-142	141711
-12847	-19891	355	214	140	-191	6	-141	141789
-12907	-19311	355	215	141	-193	1	-139	141805
-14975	-18530	352	215	139	-194	1	-140	141929
-12887	-19588	355	216	141	-192	3	-139	142023
-12564	-20507	355	216	140	-193	4	-138	142210
-12751	-19690	353	218	140	-192	3	-138	142241
-12484	-18768	356	218	141	-191	5	-140	142476
-13279	-19692	355	217	137	-191	4	-137	142694
-12249	-18531	355	217	142	-194	4	-137	142866
-14215	-18228	352	215	137	-191	2	-139	142912
-12520	-18490	357	216	142	-190	4	-136	142959
-12175	-19562	355	217	139	-191	4	-139	142975
-13095	-18971	352	214	142	-191	6	-140	143068
-12974	-19146	358	217	138	-191	2	-140	143100
-12841	-19115	355	214	140	-189	7	-138	143412
-12487	-19053	353	218	138	-192	6	-140	143661
-11711	-19000	353	215	137	-194	5	-138	143926
-13067	-18951	352	219	141	-190	4	-139	144254
-12645	-20969	355	216	142	-191	3	-140	144379
-15967	-18442	356	216	141	-193	6	-138	144628
-14503	-19063	355	217	140	-193	4	-139	144800
-12592	-18359	355	219	139	-192	4	-138	144909
-12352	-18543	355	216	140	-191	2	-142	144925
-11946	-18784	356	216	139	-198	6	-138	145424
-12758	-18675	356	216	141	-196	7	-139	145440
-12452	-18585	356	216	138	-190	4	-141	145580
-11951	-19031	353	216	141	-189	4	-139	145642
-12712	-18872	355	218	140	-189	3	-139	145689
-13278	-19244	356	216	140	-191	9	-139	145752
-12965	-19412	354	218	141	-190	4	-138	145798
-13138	-18462	355	218	140	-191	5	-140	145923
-12695	-19164	353	219	139	-192	1	-140	146001
-13136	-18364	356	218	139	-191	4	-139	146126
-16921	-19754	355	216	136	-194	3	-138	146344
-13183	-19436	353	216	139	-193	5	-140	146376
-12418	-18882	355	213	138	-194	4	-138	146422
-12270	-18341	355	216	139	-192	5	-139	146485
-12998	-20622	355	217	141	-193	4	-138	146547
-14248	-18972	354	215	140	-193	3	-137	146719
-13590	-19271	354	215	140	-193	6	-140	146734
-12486	-20011	357	218	139	-191	4	-142	146968
-12518	-18889	355	217	137	-192	4	-139	147000
-12805	-19188	357	217	139	-192	5	-137	147015
-12644	-20313	355	216	137	-189	5	-141	147078
-13377	-18767	356	216	140	-191	3	-140	147093
-12827	-19125	355	214	139	-193	3	-139	147280
-13036	-19189	355	212	140	-190	1	-140	147343
-13373	-18757	358	215	140	-191	2	-139	147483
-13935	-19340	353	219	141	-190	7	-139	147561
-12849	-19128	357	216	138	-192	6	-137	147670
-13010	-17100	350	215	137	-195	9	-139	147702
-12563	-18760	358	217	141	-189	6	-137	147717
-14987	-19225	357	217	141	-191	3	-138	147811
-14176	-19195	355	216	141	-189	5	-139	147858
-12686	-20365	357	217	138	-193	3	-140	147982
-11571	-19681	356	217	138	-191	5	-139	147998
-12573	-20935	356	214	133	-190	1	-137	148045
-12546	-19375	357	217	140	-192	3	-139	148076
-14076	-18939	355	215	141	-189	4	-139	148419
-13049	-18356	358	217	139	-194	8	-138	149371
-13374	-18665	357	217	140	-190	5	-140	149418
-12408	-20327	356	213	141	-192	3	-138	149496
-12486	-19036	358	216	140	-191	6	-138	149527
-14345	-19011	357	217	138	-190	5	-139	149558
-13716	-16120	354	214	138	-192	7	-137	149792
-12845	-19001	357	221	141	-190	7	-136	149823
-13579	-18642	356	218	140	-191	1	-139	149995
-11901	-18807	358	217	138	-193	5	-139	150026
-13132	-18476	359	217	142	-189	1	-138	150073
-13076	-19439	358	217	140	-192	5	-139	150088
-12853	-18672	358	216	140	-189	7	-139	150104
-13368	-19265	351	215	141	-193	4	-138	150322
-13009	-19091	358	217	137	-191	5	-137	150369
-13290	-19893	357	216	141	-190	7	-139	150478
-13184	-18563	359	215	139	-190	2	-141	150478
-12327	-19539	356	214	140	-191	5	-141	150510
-14420	-19307	354	215	139	-193	5	-138	150712
-17030	-18714	356	213	138	-190	3	-138	150790
-12861	-18350	354	218	140	-188	5	-137	150806
-14106	-17248	356	218	139	-189	3	-141	150822
-13354	-19804	357	215	140	-191	4	-139	150853
-15225	-19393	358	216	140	-190	4	-136	150915
-16337	-19638	356	215	139	-191	0	-138	150946
-13155	-18865	355	216	136	-191	4	-137	150993
-12764	-19070	355	216	142	-190	3	-143	151102
-13707	-18684	355	216	141	-190	4	-137	151149
-12511	-19670	356	217	139	-193	3	-138	151227
-12576	-18798	356	216	142	-190	5	-142	151321
-12231	-19317	356	211	140	-191	9	-138	151336
-12038	-19522	356	216	137	-194	4	-141	151352
-12851	-18507	356	216	140	-189	6	-139	151414
-12062	-18773	359	216	140	-192	5	-138	151477
-12115	-18733	357	216	140	-189	4	-139	151492
-11871	-18528	357	216	139	-189	4	-137	151539
-12852	-19358	355	216	136	-189	5	-140	151648
-13334	-18819	355	211	139	-189	5	-138	151664
-13935	-17827	357	214	141	-191	3	-138	151680
-12885	-18752	357	218	142	-190	6	-138	151758
-12546	-19088	358	218	139	-193	2	-140	151867
-12997	-18999	356	216	141	-191	1	-141	152023
-12301	-19998	354	214	138	-191	4	-139	152085
-13299	-20514	356	218	141	-192	6	-141	152116
-13023	-18835	357	215	140	-189	7	-138	152210
-14544	-19238	357	212	138	-192	6	-137	152335
-12532	-18428	356	215	139	-192	6	-137	152350
-14001	-19324	355	217	139	-189	4	-137	152382
-16917	-19027	355	217	139	-189	7	-137	152538
-11996	-19021	355	215	138	-188	6	-139	152553
-13710	-19192	352	216	140	-190	7	-141	152616
-12951	-18965	355	215	141	-191	6	-141	152709
-12855	-19462	357	213	137	-190	2	-141	152865
-13111	-18783	355	215	137	-191	4	-140	152943
-14384	-20039	355	217	138	-189	4	-139	153006
-12838	-19326	357	217	139	-194	5	-138	153240
-12678	-18582	356	212	140	-192	8	-140	153302
-13864	-19079	353	216	139	-188	6	-140	153536
-14054	-19097	357	218	142	-189	4	-138	153661
-12124	-18974	355	216	139	-192	4	-140	154066
-13333	-18605	355	216	140	-191	4	-138	154082
-12087	-19390	359	217	138	-191	4	-137	154347
-13988	-18351	353	213	139	-189	5	-138	154441
-12097	-18944	358	214	137	-189	5	-139	154550
-13290	-18894	358	216	139	-190	6	-139	154581
-12379	-18891	354	215	138	-189	1	-137	154815
-11650	-20529	356	215	138	-191	3	-141	154831
-13586	-18803	359	216	138	-193	4	-144	154862
-13027	-19137	356	214	139	-190	5	-142	154940
-14617	-16950	356	218	141	-190	1	-142	154971
-13988	-19250	358	214	137	-192	6	-147	154987
-13156	-18417	357	217	140	-193	4	-138	155034
-13713	-21172	356	216	138	-190	7	-140	155112
-13006	-18788	358	216	138	-190	5	-148	155143
-12949	-18543	358	215	138	-190	4	-140	155174
-12366	-19336	357	216	142	-188	8	-140	155720
-13304	-19256	356	215	140	-191	2	-141	156001
-12991	-19815	357	216	139	-192	5	-139	156110
-14160	-18471	358	216	137	-190	6	-139	156204
-11391	-20364	357	216	141	-190	6	-139	156250
-12481	-20898	359	216	138	-191	5	-142	156328
-12739	-19666	358	216	139	-192	5	-138	156344
-13184	-18397	355	218	139	-192	6	-138	156469
-13138	-19560	358	218	139	-192	7	-136	156531
-11824	-18464	356	217	138	-193	1	-138	156906
-13034	-18550	356	215	142	-192	2	-139	157015
-13197	-19031	356	218	138	-188	4	-136	157124
-12731	-18701	359	216	136	-191	5	-136	157186
-11410	-18965	355	214	140	-191	3	-140	157264
-13774	-18092	358	217	139	-190	5	-137	157374
-16712	-18683	357	219	139	-190	6	-140	157389
-12306	-19060	357	218	138	-193	6	-138	157405
-12492	-19268	358	215	137	-189	7	-138	157576
-12758	-18453	360	218	139	-193	6	-140	157842
-12833	-16312	358	216	138	-193	3	-139	157873
-13393	-19130	356	214	140	-193	2	-139	157966
-16504	-18633	354	218	139	-189	5	-137	158013
-13273	-18789	356	214	140	-190	3	-137	158247
-12554	-18686	354	218	140	-189	2	-139	158434
-12903	-19663	354	214	140	-190	5	-137	158450
-13764	-18805	356	217	136	-195	4	-136	158528
-12639	-19275	353	215	136	-190	2	-136	158606
-13486	-19349	358	215	137	-190	3	-139	158622
-12477	-19377	353	216	140	-190	4	-137	158622
-13602	-18538	357	215	137	-188	4	-139	158824
-12616	-19098	356	216	139	-190	2	-138	158887
-12668	-19329	357	218	138	-189	2	-143	158980
-13291	-19877	354	214	137	-191	5	-140	159012
-12430	-18929	353	217	137	-190	2	-138	159168
-11888	-19045	358	217	140	-192	3	-136	159183
-12666	-19036	358	215	139	-193	4	-138	159339
-13051	-18670	359	214	140	-190	7	-138	159464
-13781	-19016	354	216	140	-192	1	-138	159495
-13064	-18703	355	216	136	-190	5	-139	159542
-15276	-18853	358	217	139	-190	5	-139	159589
-12617	-18758	354	216	138	-188	2	-140	159776
-12568	-19509	355	218	140	-190	5	-137	159870
-12697	-18831	356	216	139	-192	6	-138	160010
-13734	-19093	355	216	139	-192	4	-139	160026
-12702	-19197	360	219	141	-190	4	-138	160213
-14050	-18977	355	214	138	-187	5	-136	160353
-12388	-18617	356	216	140	-189	4	-137	160587
-12851	-18545	357	216	137	-189	4	-140	160603
-12475	-19216	355	214	140	-190	3	-138	160728
-14641	-18775	357	215	136	-190	7	-139	161055
-13458	-18672	356	217	140	-192	8	-139	161118
-13779	-19180	356	216	137	-189	4	-138	161180
-13634	-19570	357	217	138	-194	4	-138	161398
-12515	-19115	355	218	138	-192	5	-135	161461
-13085	-19082	358	216	134	-189	6	-138	161492
-14028	-18676	357	215	138	-197	5	-138	161570
-12879	-19233	357	215	136	-190	4	-138	161648
-11974	-19729	358	215	139	-190	8	-139	161695
-13364	-18866	355	216	136	-190	4	-139	161788
-13484	-19574	357	216	137	-190	6	-140	161866
-16494	-19067	351	215	138	-194	5	-137	162085
-13242	-18998	360	214	139	-192	4	-139	162147
-13004	-18849	356	214	135	-196	5	-139	162194
-13421	-18835	358	215	135	-192	6	-139	162225
-12299	-18878	358	214	139	-188	5	-137	162490
-13188	-18605	356	214	139	-193	2	-139	162958
-12736	-18221	357	216	137	-188	4	-136	163021
-11602	-18311	357	213	138	-188	7	-136	163052
-12853	-18563	357	216	138	-190	8	-138	163068
-13598	-19207	359	217	139	-191	6	-142	163239
-13390	-18458	355	210	141	-193	6	-139	163255
-12561	-18981	357	216	138	-189	5	-139	163286
-14804	-18411	358	215	138	-191	7	-140	163302
-16045	-19301	355	217	139	-191	9	-141	163380
-12224	-18728	358	216	141	-189	6	-138	163380
-13039	-18728	358	216	139	-191	6	-139	163660
-12664	-19342	354	216	141	-193	4	-140	163692
-13475	-19234	359	215	140	-189	5	-139	163785
-12414	-17962	355	215	137	-190	2	-136	163894
-14784	-18613	357	212	140	-192	7	-138	163910
-12317	-18849	355	216	138	-188	8	-139	163957
-14561	-18819	354	213	140	-192	5	-139	164035
-12311	-19226	353	214	138	-193	4	-138	164066
-13327	-18055	357	217	140	-189	5	-136	164082
-12778	-18666	355	215	141	-192	5	-138	164113
-13987	-18736	357	213	139	-189	7	-139	164175
-12647	-19537	358	214	138	-188	7	-139	164316
-13307	-18806	355	214	140	-189	5	-139	164331
-13049	-19967	357	216	138	-192	3	-139	164596
-12767	-18598	354	213	139	-189	3	-140	164659
-12780	-18885	356	210	138	-190	1	-140	164784
-11892	-20867	354	214	138	-192	2	-135	164940
-12177	-19124	355	212	137	-195	3	-140	165018
-13367	-18731	356	216	136	-190	-1	-141	165033
-12835	-18816	356	215	140	-188	3	-138	165064
-12441	-19611	356	212	138	-191	4	-140	165189
-15460	-19115	354	215	135	-194	6	-141	165298
-12472	-19575	357	214	136	-191	4	-139	165345
-13744	-18915	358	216	138	-191	3	-139	165392
-12582	-19945	357	214	140	-190	3	-138	165423
-12078	-19655	352	214	139	-190	3	-137	165486
-12620	-19266	355	215	139	-192	5	-139	165532
-12932	-18871	356	216	140	-188	5	-137	165673
-12936	-19227	355	212	138	-195	2	-138	165688
-13462	-19332	358	213	138	-193	5	-137	165735
-13087	-19060	356	216	137	-189	5	-137	165735
-13495	-19366	355	216	136	-193	4	-138	165782
-12894	-18687	358	214	141	-191	4	-134	165985
-12766	-18678	354	213	138	-193	3	-136	166032
-13361	-20668	353	217	142	-191	6	-137	166078
-13396	-18399	358	215	136	-191	3	-135	166141
-12302	-19147	357	213	140	-189	5	-139	166468
-12934	-18894	356	216	140	-191	3	-138	166656
-13807	-20050	357	217	139	-190	5	-136	166874
-12488	-18411	355	214	137	-192	7	-137	166874
-16404	-18332	357	213	140	-195	5	-138	167155
-12252	-19106	356	215	140	-189	6	-138	167233
-13169	-18738	356	213	138	-188	6	-137	167295
-13864	-18885	356	213	140	-190	4	-139	167389
-12401	-19206	353	213	137	-194	6	-137	167514
-12778	-19124	357	215	141	-195	3	-138	167607
-14414	-19132	356	215	140	-189	0	-136	167670
-13054	-19043	356	217	140	-190	6	-136	167701
-13278	-18525	356	215	138	-190	6	-137	167810
-13211	-19351	351	212	137	-194	2	-137	168075
-12256	-19112	355	215	140	-195	5	-136	168075
-11697	-18957	358	217	140	-190	4	-143	168247
-12329	-19448	358	215	139	-195	6	-139	168309
-12991	-19285	354	211	138	-191	4	-140	168465
-12494	-18993	357	214	140	-192	4	-138	168590
-12352	-19392	357	217	140	-191	4	-140	168606
-12889	-18627	358	215	137	-191	9	-141	168762
-13036	-19538	358	214	141	-192	3	-139	168840
-14129	-19114	358	217	140	-189	5	-138	169058
-12560	-19001	352	213	136	-192	4	-140	169354
-9874	-20922	357	212	140	-192	5	-142	169417
-13268	-19893	356	216	139	-191	4	-139	169682
-13762	-18455	352	215	141	-190	6	-139	169682
-12974	-18482	356	214	136	-190	5	-140	169698
-13077	-18795	355	218	135	-192	5	-141	169760
-13294	-18634	355	216	137	-192	6	-137	169822
-12819	-19574	355	216	140	-187	4	-139	169900
-11934	-19339	355	211	139	-189	3	-139	170056
-12386	-18496	356	217	138	-189	5	-140	170072
-12074	-19284	358	212	138	-191	5	-139	170400
-13177	-19413	355	213	137	-192	6	-137	170415
-13227	-18799	357	213	139	-190	6	-136	170540
-12457	-19380	355	214	139	-194	4	-138	170665
-12378	-19240	356	215	138	-195	6	-141	170696
-12314	-18687	354	216	141	-194	-1	-137	170868
-14049	-19159	356	217	140	-191	3	-137	170914
-13571	-18832	354	213	140	-195	7	-140	171086
-12653	-18988	355	215	139	-193	7	-139	171226
-16286	-19443	358	214	139	-191	3	-134	171414
-12595	-19432	356	212	138	-194	4	-139	171523
-13916	-19273	355	213	139	-189	5	-140	171585
-14518	-19016	359	215	140	-193	10	-137	171616
-12735	-19083	352	216	140	-189	6	-139	171679
-13318	-19602	356	214	139	-189	6	-137	171694
-12794	-18936	357	216	136	-190	5	-137	171913
-11607	-18466	358	215	141	-195	7	-139	172069
-13159	-19349	357	212	136	-189	3	-144	172162
-12102	-18760	355	212	140	-189	8	-139	172240
-11372	-19296	355	214	138	-191	4	-139	172272
-13921	-18849	354	216	140	-195	7	-135	172584
-13948	-19059	355	216	139	-190	9	-138	172599
-14444	-19671	351	216	139	-188	5	-142	172677
-14365	-18924	354	215	139	-191	8	-136	172693
-12856	-21110	354	216	139	-192	2	-137	173192
-11737	-18533	355	216	137	-192	4	-136	173208
-13147	-18339	357	215	137	-188	2	-140	173332
-12864	-19558	358	214	136	-192	5	-140	173410
-13038	-18290	358	214	140	-189	4	-137	173504
-11941	-19176	354	216	139	-192	5	-137	173691
-12625	-18668	354	213	137	-193	7	-142	173894
