-13558	-20026	360	216	143	-190	1	-143	1342
-12360	-16141	358	216	138	-190	-2	-141	1810
-13509	-19064	356	216	141	-191	4	-144	2808
-13899	-18533	359	217	142	-194	5	-140	2871
-13709	-20125	357	216	139	-192	-6	-143	4041
-13301	-18339	357	214	141	-189	1	-144	5148
-16522	-19003	356	212	134	-195	3	-142	5320
-12840	-19732	354	214	141	-195	4	-141	5975
-12826	-19288	359	217	142	-190	4	-145	6802
-13291	-20674	353	213	139	-192	3	-140	7098
-12105	-19181	356	217	142	-189	4	-140	8612
-12740	-21134	355	216	136	-190	2	-141	9173
-12081	-19560	354	216	141	-194	1	-143	9906
-12857	-18495	358	214	139	-192	4	-144	11451
-13142	-19429	356	213	139	-188	3	-143	11560
-14249	-18938	358	217	141	-189	1	-141	11669
-12618	-19269	356	217	139	-189	6	-139	11825
-11713	-18930	358	217	140	-189	2	-142	11903
-15367	-21109	357	214	138	-194	6	-140	12558
-15686	-19840	358	212	140	-191	3	-143	13635
-12756	-20939	356	214	143	-193	1	-139	14555
-12754	-20366	357	215	139	-191	4	-145	15585
-12732	-20698	357	217	141	-191	3	-142	15881
-12818	-16294	356	217	140	-193	1	-140	16318
-12200	-19022	357	216	141	-191	1	-143	16458
-12837	-17659	358	215	139	-191	1	-145	16474
-13294	-18623	356	211	145	-189	4	-145	16958
-12570	-14106	358	216	140	-192	2	-144	18003
-13930	-19922	359	215	141	-190	0	-144	18096
-14679	-18819	357	216	138	-192	2	-144	18284
-12002	-20234	355	212	141	-190	3	-140	21450
-15042	-19334	356	216	137	-190	-2	-141	21684
-15231	-18908	357	218	139	-191	-2	-141	24321
-12648	-20551	358	217	139	-189	1	-141	26318
-13543	-18786	357	212	141	-191	0	-141	27254
-12442	-19098	360	217	141	-195	3	-142	29188
-12998	-13939	358	213	142	-191	-1	-144	29469
-13782	-20498	359	216	139	-193	5	-140	30046
-11330	-18475	359	217	141	-189	1	-142	31372
-11531	-17270	358	215	140	-192	0	-142	32308
-10745	-19855	359	217	140	-191	6	-144	34009
-12686	-18546	357	219	137	-191	3	-144	34679
-12264	-16176	357	213	142	-191	1	-141	35085
-13082	-19132	358	215	139	-192	4	-142	35397
-14855	-19024	358	215	139	-190	2	-142	38548
-12277	-18692	359	215	140	-192	5	-142	38564
-16205	-20930	356	213	138	-192	5	-143	39188
-13928	-19974	355	214	135	-191	0	-146	39515
-12265	-16257	356	213	137	-190	1	-141	40093
-16667	-19322	357	215	140	-192	0	-140	40873
-13230	-16714	357	214	142	-193	5	-142	41465
-12637	-18941	358	216	138	-194	2	-140	41793
-15411	-19089	356	215	138	-192	2	-139	42230
-16321	-18840	353	215	139	-190	3	-143	42807
-13437	-19692	358	217	140	-191	3	-139	43415
-15038	-21233	358	212	140	-189	4	-145	43556
-13075	-19090	355	218	137	-191	4	-141	45833
-16532	-18646	355	217	135	-193	1	-138	46317
-13778	-21039	355	216	139	-191	5	-141	46348
-14873	-19450	356	218	140	-190	7	-140	47113
-15387	-19070	358	217	137	-190	3	-141	48251
-13117	-20874	352	215	138	-192	2	-144	49063
-15427	-18930	356	217	137	-190	3	-142	49219
-12781	-20106	356	216	138	-190	2	-139	51059
-13021	-17136	354	216	137	-188	2	-147	51605
-14319	-18643	356	218	143	-193	0	-143	59296
-13213	-16928	359	217	137	-192	3	-141	61012
-11988	-16319	355	217	139	-192	5	-142	61231
-12399	-12047	356	214	136	-193	0	-139	61278
-11497	-19890	360	214	141	-193	3	-139	61964
-16539	-19006	355	214	137	-190	1	-143	62058
-12268	-19298	358	214	139	-193	4	-141	62884
-12720	-18073	352	216	138	-194	4	-142	63259
-12479	-15881	357	217	140	-191	-1	-144	64132
-12409	-19691	355	214	141	-194	2	-144	64132
-12691	-18550	357	218	141	-191	-1	-141	64491
-12393	-16664	359	213	140	-192	2	-139	64975
-13806	-20015	355	213	141	-189	4	-142	65614
-13176	-19684	359	216	141	-190	4	-141	66909
-12520	-18804	359	216	137	-196	5	-144	67050
10111	-19191	358	215	138	-191	4	-143	68485
-11637	-18514	359	217	139	-188	1	-141	69218
-13388	-16230	358	216	140	-193	1	-142	69452
-14313	-19759	356	211	137	-193	2	-141	69873
-10278	-19089	356	217	138	-193	3	-141	71480
-12789	-16047	359	215	141	-192	3	-141	72354
-13206	-18720	354	214	137	-192	4	-140	72556
-13946	-19213	354	218	142	-193	2	-141	73836
-13531	-18841	355	217	141	-192	3	-142	74896
-16844	-19254	356	215	138	-190	3	-141	75645
-14034	-15831	358	216	136	-194	3	-139	76222
-13146	-19085	355	216	141	-191	0	-142	77502
-13433	-19357	357	213	139	-194	-4	-143	80622
-11676	-19212	357	217	142	-193	1	-144	82806
-13421	-21039	354	213	139	-194	1	-141	82821
-12711	-18455	353	215	140	-191	6	-148	82868
-12852	-20369	355	214	140	-192	3	-141	84381
-13128	-19502	356	215	140	-189	5	-147	84943
-12447	-16524	355	215	138	-188	3	-142	84974
-12779	-17642	355	216	141	-193	6	-141	85442
-12208	-17301	355	218	143	-192	4	-144	89857
-14289	-19113	355	219	139	-191	7	-145	89888
-15733	-20308	356	217	141	-193	3	-142	90481
-13641	-19130	355	215	142	-191	3	-141	91074
-12179	-18956	355	213	138	-191	4	-141	91417
-13224	-19022	354	216	140	-190	3	-142	93164
-11548	-16347	357	216	140	-193	3	-141	93242
-17043	-19185	353	217	138	-192	6	-140	94490
-13212	-19455	355	215	140	-195	4	-145	94553
-14020	-18758	356	217	136	-193	5	-142	95067
-13158	-20549	356	216	139	-193	3	-144	95395
-11991	-16945	355	217	140	-194	7	-143	95832
-12723	-19683	355	214	136	-195	6	-141	95910
-14175	-15898	356	215	141	-194	1	-145	96752
-13323	-15959	356	216	141	-189	3	-142	97439
-12673	-16289	355	215	139	-190	3	-143	97938
-13307	-19520	357	217	138	-191	1	-142	98125
-13129	-19176	356	216	138	-190	3	-143	98671
-13047	-19462	353	216	138	-192	1	-142	99342
-14029	-17057	360	217	138	-191	3	-140	99779
-15921	-18651	354	217	137	-191	1	-143	100949
-16938	-18964	355	216	141	-192	1	-144	101073
-13596	-18514	358	217	142	-192	3	-141	103523
-13664	-18892	360	216	141	-190	5	-141	104037
-13825	-17888	356	217	140	-190	2	-141	106003
-14999	-18325	359	219	141	-192	3	-139	106315
-11809	-19419	354	218	139	-194	4	-139	106908
-11935	-18122	357	215	139	-191	6	-144	110184
-12811	-19100	357	217	141	-192	3	-141	111650
-11486	-19989	357	215	137	-191	4	-142	112617
-13786	-19688	354	216	140	-193	1	-140	113319
-14065	-16402	354	218	139	-191	0	-141	113585
-16028	-19222	355	214	138	-191	5	-142	117063
-13570	-20931	357	219	141	-190	3	-144	120464
-15298	-20358	355	215	138	-192	5	-147	120776
-16436	-21032	357	216	141	-192	0	-140	120964
-13181	-19769	356	218	135	-191	3	-143	121073
-12481	-18930	358	214	138	-194	1	-141	122040
-11726	-18660	360	215	138	-192	7	-140	122446
-12861	-18456	357	215	139	-194	1	-141	122539
-14753	-19391	358	216	140	-193	5	-141	123397
-16740	-20121	360	216	141	-193	7	-143	123397
-11019	-19074	357	217	138	-191	1	-143	123600
-14123	-18282	360	216	140	-189	6	-140	123896
-10746	-19498	357	214	142	-189	6	-142	123959
-15726	-19136	357	217	138	-191	7	-140	124552
-15317	-19805	357	216	135	-193	5	-141	125644
-13352	-18926	356	215	139	-192	3	-141	125924
-12161	-19374	358	216	138	-198	4	-140	126268
-13155	-17141	356	215	140	-191	4	-140	126314
-13089	-18134	360	217	139	-191	3	-142	126517
-13323	-19491	357	215	141	-191	5	-144	127952
-11668	-19737	357	214	140	-196	6	-142	128140
-13805	-20433	356	210	141	-191	0	-140	128467
-13663	-19446	358	216	138	-196	3	-140	128779
-12465	-19516	355	217	140	-194	4	-143	128998
-14692	-19211	357	216	137	-190	1	-139	129497
-13148	-19558	358	214	138	-192	4	-141	131899
-12621	-19610	355	216	137	-194	6	-141	134239
-13526	-19351	357	215	141	-194	3	-142	134411
-13805	-17873	353	214	139	-191	2	-143	134520
-11698	-21042	359	214	140	-192	6	-142	135550
-15804	-18635	357	214	135	-193	4	-145	136501
-12860	-18794	351	217	139	-192	4	-142	137593
-13422	-21097	357	216	140	-193	5	-141	138748
-12878	-18990	356	216	138	-194	6	-141	138982
-13178	-18958	356	219	142	-189	1	-142	140822
-14689	-18801	355	217	139	-192	2	-139	140947
-12536	-19466	354	218	140	-191	-2	-142	141181
-11828	-20136	354	214	138	-192	4	-141	141634
-13899	-20499	358	215	139	-192	1	-138	143474
-13858	-18917	357	216	139	-192	3	-144	144301
-13231	-20300	355	213	139	-188	2	-140	144878
-11985	-15880	358	218	140	-194	2	-138	145362
-10971	-18921	357	216	141	-192	3	-141	145502
-13154	-18363	358	215	137	-190	5	-143	147764
-11224	-19206	355	217	138	-191	3	-143	147920
-12715	-18893	358	210	140	-194	4	-142	148248
-15646	-18373	357	216	137	-190	2	-144	148513
-13610	-19281	357	213	138	-191	4	-140	149044
-13374	-18118	355	213	137	-192	5	-143	149184
-13709	-16875	354	213	142	-192	6	-146	152944
-13147	-19304	357	215	138	-194	4	-142	153864
-11584	-19386	357	215	140	-193	4	-146	155237
-12820	-4197	354	218	136	-194	4	-141	155767
-12636	-19144	354	216	138	-195	7	-140	156095
-10540	-19061	356	214	138	-193	6	-141	156173
-12827	-20568	354	216	139	-192	4	-140	156391
-14473	-19080	356	216	137	-191	7	-142	157624
-12284	-19474	357	216	141	-191	2	-141	157905
-12272	-19382	357	216	138	-191	5	-142	157920
-11405	-20792	353	217	138	-191	4	-140	158825
-14515	-20355	350	214	140	-195	3	-145	159028
-13672	-18855	353	217	138	-192	4	-144	159153
-14282	-19253	355	216	138	-192	2	-139	160073
-14259	-18776	356	216	138	-193	1	-140	160182
-14482	-18535	354	217	140	-190	1	-140	160213
-13588	-16732	356	216	139	-191	3	-143	160323
-13675	-19229	358	217	140	-190	4	-141	162163
-12763	-19446	355	217	139	-192	2	-140	162741
-10579	-18813	359	215	139	-192	3	-141	162959
-14772	-17544	358	218	138	-193	4	-143	163099
-12031	-17709	358	216	139	-193	4	-144	163209
-12675	-17680	356	216	140	-190	3	-142	163489
-13600	-20549	358	215	143	-193	1	-139	165174
-16792	-19832	358	218	137	-190	6	-142	166110
-15948	-19438	359	218	139	-194	3	-143	168091
-12657	-19698	359	214	135	-193	2	-143	168107
-12475	-21178	353	217	136	-192	3	-139	168497
-12934	-18825	358	217	137	-193	4	-144	168747
-15449	-19539	355	218	140	-189	0	-144	168793
-12553	-17471	353	214	137	-193	6	-144	169542
-10766	-19060	354	216	139	-192	2	-143	170119
-16887	-19655	352	214	136	-191	-1	-145	170119
-13174	-18534	350	217	139	-191	2	-142	170291
-12526	-15842	353	215	137	-188	6	-145	171274
-12415	-19112	355	216	138	-190	4	-140	173411
-12437	-21099	355	215	139	-201	2	-148	174004
-12966	-19765	359	217	139	-190	3	-141	174066
-12887	-18191	358	218	138	-191	3	-144	174207
-15568	-18622	352	216	140	-191	2	-142	176531
-14059	-18224	355	215	138	-192	3	-141	176562
-13379	-18889	355	219	137	-192	5	-145	179121
-14607	-19395	353	215	139	-190	4	-142	179401
-11828	-17539	356	217	138	-191	5	-142	179495
-11554	-18789	352	215	136	-195	0	-142	181055
-13132	-18632	356	216	138	-191	3	-140	181554
-12714	-19313	354	217	135	-191	2	-144	181866
-13562	-20411	352	219	139	-187	6	-139	182131
-12764	-18187	356	217	138	-190	5	-143	184035
-13021	-16806	356	216	137	-191	2	-143	186032
-13775	-17238	356	216	138	-191	3	-143	186203
-16677	-18998	352	210	138	-192	1	-142	188730
-13310	-20621	355	213	137	-193	6	-146	188746
-14771	-18969	357	216	139	-188	3	-143	189136
-16497	-18395	355	214	140	-190	1	-143	189994
-12981	-19300	359	217	137	-195	1	-144	190322
-16236	-19110	357	212	135	-191	6	-142	191008
-12383	-18844	356	215	138	-191	2	-145	191055
-15003	-19031	357	216	139	-193	5	-145	191336
-12688	-20240	357	213	139	-190	6	-140	191866
-13353	-18776	360	216	140	-191	5	-147	192240
-12404	-19255	356	215	140	-191	2	-143	192911
-12750	-20433	361	213	137	-190	4	-146	194003
-13516	-19242	358	213	136	-192	3	-145	194362
-16558	-19371	359	212	140	-190	3	-143	194768
-13077	-16911	358	208	141	-189	2	-143	196328
-13730	-19902	354	213	139	-193	4	-142	197669
-12803	-18695	357	218	139	-192	1	-139	198636
-13727	-19761	356	218	140	-191	6	-139	198636
-13843	-17332	355	215	136	-193	5	-147	201335
-13637	-16635	357	212	139	-192	4	-140	201491
-13087	-19110	357	215	141	-193	3	-148	201819
-13264	-16020	357	216	141	-193	5	-146	202989
-13538	-19271	357	216	140	-195	3	-142	203379
-14475	-19154	357	215	141	-195	3	-147	205204
-15318	-18926	357	215	136	-192	3	-142	206249
-12874	-18826	356	218	140	-191	0	-140	207357
-13763	-17302	359	218	138	-190	4	-144	212848
-14904	-17452	355	218	140	-192	5	-141	214018
-12738	-21082	358	219	138	-191	3	-142	216171
-16064	-18890	358	217	140	-191	3	-142	216764
-12277	-21024	355	215	139	-197	1	-144	217934
-12401	-12689	357	218	138	-192	6	-141	218355
-12684	-16288	355	216	139	-191	2	-143	218449
-14703	-18891	359	218	141	-190	-2	-144	220352
-15786	-19632	359	215	139	-190	2	-141	220976
-13088	-18287	357	217	137	-189	5	-144	221023
-12777	-19097	357	216	140	-194	0	-143	221662
-13659	-17969	357	210	139	-191	4	-142	221849
-13165	-17834	358	216	142	-191	1	-143	222973
-12715	-21210	357	213	138	-191	2	-142	223425
-10164	-19231	353	219	138	-193	3	-142	227263
-12535	-19448	355	212	140	-191	3	-148	228854
-16769	-18606	359	212	138	-193	2	-142	228885
-11952	-17250	357	214	140	-190	5	-141	229337
-16051	-19193	359	216	140	-193	3	-141	229415
-12923	-17320	356	216	138	-190	4	-141	229571
-13326	-16217	360	215	137	-191	6	-141	229821
-12636	-20796	359	214	139	-193	5	-142	230071
-12075	-17322	358	218	138	-190	2	-141	231194
-13299	-20177	356	215	137	-192	3	-142	232286
-15126	-17725	358	216	140	-191	-3	-141	232691
-12411	-19120	360	215	140	-189	4	-144	233206
-13640	-19631	356	216	140	-192	4	-141	235687
-11472	-19082	355	216	138	-191	3	-141	235796
-13505	-18795	356	217	137	-193	7	-142	236342
-13895	-19241	358	214	139	-191	4	-139	236732
-14723	-19064	357	218	138	-192	4	-140	237184
-13694	-19436	355	213	137	-192	0	-140	237652
-12515	-17172	358	218	140	-193	0	-142	240975
-15606	-20868	354	217	138	-191	6	-143	242488
-11213	-16635	354	215	139	-191	4	-140	242582
-10618	-19474	356	217	138	-191	3	-144	243237
-16537	-18850	357	216	137	-190	5	-143	243440
-10704	-18881	356	218	139	-190	5	-141	243814
-10669	-18753	355	217	136	-191	7	-140	247309
-12406	-20208	357	217	138	-193	2	-142	247605
-12232	-19166	358	216	140	-190	-1	-143	250866
-16112	-19499	359	217	139	-192	1	-139	251833
-10307	-19400	354	219	139	-190	6	-144	251926
-12071	-17087	358	215	140	-193	1	-138	252192
-12294	-18858	357	213	138	-196	3	-142	252738
-13908	-19369	357	215	136	-193	-1	-142	252909
-12457	-18711	358	218	140	-192	2	-141	253861
-12376	-19091	360	219	137	-193	6	-141	254313
-14960	-19296	356	217	140	-191	6	-141	254407
-16776	-21020	357	213	137	-192	3	-141	254766
-16688	-19484	358	216	138	-194	2	-142	255670
-12875	-18496	358	215	137	-192	3	-142	255717
-13467	-17603	356	213	137	-190	0	-141	256887
-12769	-19242	360	217	137	-191	5	-142	257215
-12621	-16893	360	220	139	-190	2	-149	257511
-12430	-17652	360	216	137	-192	4	-144	258775
-12759	-20803	358	217	137	-191	7	-142	258853
-15210	-19402	355	217	139	-194	6	-140	258931
-12474	-19130	357	216	138	-193	6	-144	258946
-16962	-19635	357	218	135	-189	3	-145	259804
-12072	-19963	357	214	139	-190	3	-142	260257
-13762	-20060	355	213	140	-191	2	-143	260600
-12332	-19383	357	213	139	-188	4	-139	261489
-11422	-19194	355	217	141	-192	5	-141	261567
-16663	-20316	358	216	140	-192	3	-143	261754
-12940	-15793	353	215	137	-189	5	-142	261926
-12782	-16615	358	218	136	-193	0	-141	263408
-15586	-19520	356	219	136	-189	3	-146	265732
-12771	-19469	358	214	137	-191	3	-141	266154
-13668	-19905	358	216	137	-190	5	-141	267355
-12939	-19214	359	214	137	-195	3	-142	267760
-16814	-19167	356	210	132	-193	4	-141	270444
-11843	-20411	357	216	141	-189	4	-144	270912
-15625	-19056	353	215	139	-191	6	-143	271395
-16686	-18705	362	217	138	-191	3	-141	271848
-13681	-16225	358	217	138	-192	5	-141	272612
-13002	-20016	358	217	140	-188	4	-140	272846
-12345	-20315	358	216	141	-194	2	-140	272877
-13351	-20709	359	215	140	-194	3	-144	273517
-12948	-19917	355	212	139	-190	2	-140	274437
-12671	-17216	356	216	139	-191	6	-144	275576
-13164	-19348	355	215	136	-193	4	-144	276294
-10577	-19597	356	213	139	-194	6	-142	279351
-12684	-19734	355	211	137	-192	3	-142	280989
-10421	-19559	354	213	140	-189	6	-138	281442
-14936	-19833	354	213	135	-194	5	-139	283267
-13374	-18361	356	217	136	-194	4	-144	283579
-14722	-19655	355	217	135	-191	3	-141	284187
-11976	-18930	355	213	139	-190	5	-141	286683
-15188	-19157	356	217	137	-190	5	-141	287463
-13149	-18758	357	214	139	-191	3	-144	288056
-15194	-19016	357	212	137	-193	4	-140	290349
-13530	-20074	356	216	137	-193	5	-142	290537
-14663	-19584	355	214	137	-193	3	-141	290661
-13102	-21247	357	217	138	-190	4	-141	290786
-13025	-17500	357	217	138	-189	4	-145	290989
-12968	-19765	359	216	140	-191	5	-141	291644
-12243	-19268	358	216	140	-193	6	-140	291863
-12925	-17321	359	214	140	-190	5	-139	292689
-13008	-18702	357	216	139	-189	2	-139	293407
-14985	-19414	357	215	138	-190	6	-144	294998
-14507	-19100	355	214	138	-192	3	-143	295185
-12573	-16610	355	214	141	-188	4	-141	295653
-12503	-17096	358	214	140	-191	1	-140	295872
-11033	-19248	358	216	138	-192	3	-144	296059
-12544	-17936	359	217	141	-189	5	-142	297198
-13180	-18971	356	213	140	-191	6	-141	297401
-13705	-18992	357	217	139	-195	5	-142	298071
-14014	-19877	356	218	135	-190	6	-141	298274
-12666	-19723	357	217	139	-192	6	-142	298368
-12082	-19222	358	216	140	-190	3	-143	299413
-16796	-19032	355	216	138	-192	3	-142	300349
-12745	-19739	356	216	139	-192	5	-142	301597
-13093	-17454	359	215	140	-190	6	-142	302861
-12797	-18673	356	219	140	-191	1	-142	303126
-14112	-18975	360	217	137	-191	4	-142	304265
-13158	-21101	354	214	138	-188	5	-142	305091
-14593	-18745	356	216	140	-193	3	-142	306605
-14446	-19366	359	215	138	-193	2	-138	306792
-13670	-19031	358	217	142	-191	4	-143	307385
-12629	-17434	359	220	138	-191	7	-137	307603
-12352	-20830	358	217	141	-192	4	-139	308305
-12888	-17708	355	215	139	-190	4	-141	308742
-16354	-18906	354	216	137	-193	4	-142	309054
-15030	-18853	354	215	137	-192	3	-141	311035
-11822	-19041	356	213	141	-192	4	-145	311144
-11770	-20684	354	216	141	-193	2	-143	312268
-12222	-21206	355	217	140	-194	3	-142	315606
-13417	-18331	357	211	139	-196	3	-139	317244
-11995	-16372	359	216	137	-190	3	-142	317384
-13265	-16715	357	217	135	-192	3	-141	319007
-10963	-18637	358	216	141	-192	4	-142	319256
-1693	-17622	354	214	140	-191	5	-141	320489
-13462	-18689	355	214	141	-192	5	-140	321206
-12917	-19069	354	215	139	-194	-2	-143	322174
-13130	-18996	355	217	135	-194	1	-144	322376
-13907	-17968	355	217	138	-190	-1	-141	322969
-16172	-19458	357	217	139	-193	4	-144	324451
-15570	-19593	358	216	138	-194	4	-148	324576
-12803	-19808	356	216	139	-192	3	-138	325169
-14121	-19361	355	213	137	-195	2	-140	326635
-13692	-18909	357	215	137	-194	5	-139	327197
-12898	-18855	356	218	135	-190	4	-143	330457
-11635	-19912	354	213	139	-190	3	-146	331846
-14483	-19508	356	216	139	-193	5	-144	335059
-10189	-19875	353	212	137	-189	0	-139	335215
-13632	-18869	357	217	140	-194	3	-141	336011
-14268	-19077	353	216	142	-193	2	-143	337867
-13307	-16611	354	216	140	-192	4	-139	338023
-13855	-19159	356	215	140	-190	0	-139	338538
-13348	-19537	354	215	138	-191	5	-140	340629
-13715	-18528	357	211	135	-193	1	-140	341377
-15106	-18857	356	217	141	-192	4	-145	341471
-13338	-16047	355	212	138	-190	1	-139	342001
-12991	-19208	357	218	138	-194	2	-141	342563
-10283	-19306	355	213	139	-191	6	-144	342781
-15405	-18892	355	214	139	-190	3	-142	346011
8669	-19872	355	216	139	-194	0	-138	346931
-13291	-16568	355	216	139	-191	3	-141	347087
-13457	-20193	353	214	138	-191	2	-141	347149
-12457	-17196	354	215	140	-191	2	-141	348881
-13769	-20744	356	214	140	-191	4	-140	349177
-13772	-18091	356	216	141	-193	5	-142	349739
-13642	-18824	355	215	137	-192	3	-141	350145
-12298	-21309	356	216	138	-190	3	-140	350503
-14968	-18410	357	215	138	-192	2	-139	351627
-13231	-21004	358	217	140	-196	5	-138	352672
-13215	-16056	357	217	140	-193	2	-140	353701
-13671	-16468	357	215	139	-190	5	-140	353982
-12562	-18422	358	219	137	-193	1	-139	354029
-14028	-19329	358	216	138	-193	4	-136	354388
-16912	-19512	357	215	140	-191	1	-139	357773
-10884	-19557	357	216	138	-193	0	-137	357882
-10333	-18909	356	215	140	-191	4	-140	357945
-13540	-16850	354	216	140	-191	6	-140	359271
-12907	-18460	356	215	137	-192	4	-140	359661
-13392	-18408	354	211	141	-191	4	-141	360207
-12334	-15840	355	214	142	-192	3	-140	360238
-13459	-17255	352	213	137	-192	2	-142	360706
-13527	-15830	357	218	141	-191	6	-138	361533
-12293	-20686	354	217	140	-188	0	-143	362203
-12508	-18907	356	218	142	-189	4	-140	362734
-12326	-19425	353	215	139	-193	5	-142	363951
-16657	-19086	351	214	140	-191	1	-142	364060
-13108	-18872	352	212	134	-190	1	-139	364777
-14926	-18768	356	218	139	-194	0	-137	365058
-10401	-18895	353	216	136	-191	-2	-136	365183
-13979	-18430	357	216	138	-191	2	-138	365323
-11417	-19350	358	215	140	-191	1	-142	366025
-12742	-18135	358	217	137	-192	3	-138	366977
-11622	-19149	354	214	138	-193	-2	-142	367149
-13010	-19166	357	219	139	-189	3	-138	367648
-12725	-19986	358	217	141	-192	4	-135	367804
-12502	-18028	359	217	139	-193	4	-141	368303
-12242	-20728	358	215	138	-192	2	-141	368350
-13217	-18550	356	219	134	-194	3	-142	369130
-12082	-18412	355	216	136	-191	0	-138	371142
-16177	-19609	355	217	140	-195	5	-139	371735
-13582	-20183	356	215	139	-190	5	-144	372593
-13381	-20531	356	217	138	-193	-6	-143	373701
-13210	-17573	357	216	140	-192	6	-142	374169
-16608	-19264	355	215	140	-193	6	-139	374684
-12576	-20460	357	218	139	-189	4	-140	375994
-13572	-19127	359	216	139	-192	2	-139	376010
-12906	-16318	357	215	140	-192	5	-138	376306
-13241	-18337	358	215	137	-193	1	-140	376384
-15946	-19733	355	216	140	-193	3	-139	377289
-15280	-18977	361	213	142	-190	3	-143	377835
-13064	-15857	355	219	139	-191	5	-140	378178
-12178	-17310	356	217	136	-190	4	-139	378381
-13138	-16821	355	213	137	-189	2	-143	378693
-12930	-16490	353	214	139	-191	4	-138	380877
-13638	-19961	355	216	140	-192	0	-139	382702
-14324	-18384	355	215	138	-195	1	-140	383076
-12743	-17184	357	215	136	-190	2	-141	384605
-10682	-18891	356	219	142	-190	1	-138	384855
-13944	-19299	356	217	134	-191	5	-140	385245
-11122	-18689	356	215	140	-192	7	-137	386446
-15443	-19103	360	216	140	-191	2	-141	386462
-13265	-17374	357	218	141	-189	6	-138	386508
-10748	-19040	354	218	136	-192	6	-138	386571
-12189	-16720	358	219	139	-192	3	-144	387164
-12498	-19052	357	218	140	-190	5	-138	389270
-14842	-16992	356	218	141	-188	5	-142	389457
-12703	-19710	357	214	136	-192	4	-139	391485
-16984	-18686	352	213	140	-192	6	-142	391656
-12969	-19109	353	216	140	-191	2	-142	392452
-13451	-18576	354	216	140	-192	3	-138	393482
-15140	-18782	352	214	139	-192	2	-142	393606
-13110	-16614	356	216	137	-193	5	-139	395057
-13684	-19516	358	216	139	-195	6	-142	396305
-13880	-20124	356	214	139	-192	6	-138	396414
-14054	-19771	355	216	140	-192	3	-139	397241
-16508	-18462	355	218	137	-191	3	-141	398177
-13130	-19423	356	218	140	-193	1	-143	398505
-12654	-16165	358	218	141	-191	3	-138	399129
-11537	-18911	359	215	139	-193	1	-137	399347
-14398	-18393	357	215	138	-190	1	-138	399363
-12701	-20037	355	214	137	-191	-2	-140	400127
-12060	-20325	356	215	140	-191	3	-140	400346
-10743	-19136	356	215	137	-192	2	-140	401999
-13851	-18334	352	215	141	-191	6	-138	402779
-11566	-18811	356	216	137	-191	5	-138	403871
-11652	-18991	356	215	137	-191	5	-137	404168
-13066	-19754	353	216	138	-193	3	-142	405073
-12232	-19034	356	217	141	-188	5	-140	405665
-13030	-18008	354	217	142	-190	3	-144	407662
-13453	-17687	353	215	140	-192	4	-140	407725
-12836	-17504	355	216	138	-193	4	-138	410439
-15996	-19517	355	216	138	-192	3	-137	410938
-16420	-18844	353	213	138	-191	-3	-138	411172
-16644	-16078	357	216	140	-193	3	-142	412186
-13764	-18918	357	214	135	-192	1	-139	413840
-13850	-19434	358	216	141	-191	1	-140	413933
-10562	-18748	357	219	136	-192	4	-139	414261
-14563	-19044	355	217	138	-192	3	-142	414651
-12466	-19406	356	215	137	-195	4	-140	415337
-13538	-19165	356	217	138	-193	2	-142	415384
-10818	-15924	351	215	140	-192	2	-141	415525
-14427	-18774	356	216	136	-190	3	-139	415634
-13016	-18594	358	219	137	-192	5	-139	416617
-12171	-18899	354	215	138	-193	0	-140	418099
-13998	-20591	352	218	140	-192	5	-139	421796
-16833	-18652	355	218	143	-192	4	-141	422014
-16956	-18669	358	217	141	-195	5	-141	422404
-12691	-18718	356	215	138	-190	3	-139	423309
-13277	-16352	357	218	141	-196	6	-140	424151
-13974	-19177	359	216	140	-192	1	-140	424479
-13944	-19061	361	216	140	-191	5	-136	424526
-13266	-20675	358	215	139	-191	1	-139	425025
-12500	-19524	356	219	139	-191	2	-141	425883
-14644	-18532	356	216	140	-193	4	-140	426242
-13329	-19131	354	219	139	-192	6	-138	427349
-16883	-18712	358	217	139	-192	4	-142	427552
-15551	-19591	354	217	140	-190	5	-137	430501
-12558	-20785	352	219	138	-190	5	-143	430828
-13162	-21211	358	214	139	-191	3	-142	431702
-13015	-19321	356	213	140	-188	4	-140	433356
-13245	-15912	359	217	140	-191	4	-143	433730
-13754	-19135	354	218	141	-192	1	-139	436569
-15098	-18945	355	217	138	-191	3	-140	437224
-12842	-18630	359	212	137	-190	-2	-139	437490
-14461	-19466	359	214	138	-190	1	-138	437724
-12981	-19459	355	217	140	-190	5	-144	438847
-13826	-20525	358	215	137	-189	5	-138	439533
-15055	-19388	351	215	137	-191	0	-144	439908
-11830	-15686	358	215	139	-192	3	-140	440251
-11859	-18962	357	218	141	-190	5	-141	442045
-15775	-19423	357	217	138	-191	3	-142	442388
-12868	-19399	358	218	139	-188	4	-138	443355
-12401	-16636	356	218	138	-188	1	-139	444666
-13435	-17450	355	219	139	-189	3	-142	444759
-13052	-16480	356	218	139	-191	2	-141	444900
-10447	-19459	359	214	142	-188	3	-136	446116
-13265	-18938	355	214	138	-191	1	-140	447240
-12977	-18732	355	216	140	-190	3	-141	447286
-12785	-18006	354	212	137	-190	4	-139	447910
-13431	-17171	356	218	134	-189	1	-141	448176
-12215	-16108	356	215	139	-192	2	-139	448893
-13852	-19002	358	215	137	-189	0	-141	448956
-14901	-18758	358	221	139	-192	2	-137	451280
-13376	-20170	354	213	137	-190	3	-139	451342
-12620	-16032	353	214	140	-194	3	-139	451951
-16237	-18870	357	217	141	-189	3	-138	452107
-13130	-19267	356	214	138	-190	1	-138	452294
-13268	-18952	354	217	137	-195	3	-139	452809
-12762	-18584	358	215	136	-189	-7	-145	453994
-12898	-17216	359	221	140	-190	4	-139	454306
-16607	-21067	359	217	138	-189	3	-141	454369
-15315	-20511	353	218	138	-190	5	-141	454634
-11454	-19239	353	218	135	-194	5	-139	455118
-12431	-18029	357	215	139	-192	-1	-142	456990
-12745	-19625	355	216	138	-192	4	-138	457364
-10055	-19745	357	217	137	-191	3	-140	459782
-13527	-19256	356	213	138	-189	5	-138	460640
-12064	-19739	358	216	137	-193	1	-137	461108
-12921	-19569	358	217	139	-190	6	-139	461404
-12241	-16324	356	217	141	-190	2	-139	461685
-12858	-19342	359	215	139	-192	4	-139	462730
-13437	-20644	354	216	138	-191	2	-142	463557
-13425	-18535	359	218	139	-189	5	-139	464369
-12244	-16964	358	218	137	-190	2	-140	464634
-15628	-19322	358	213	139	-192	2	-138	465398
-14283	-19391	358	215	142	-195	4	-140	466178
-16312	-17957	359	214	140	-189	3	-139	466303
-14499	-21050	359	218	138	-192	4	-137	466475
-10855	-20608	359	217	140	-192	4	-138	466677
-12689	-19191	359	219	138	-190	6	-141	467239
-15040	-19372	359	216	140	-193	2	-142	467738
-13714	-18266	358	219	139	-191	3	-139	468113
-13417	-19761	357	215	138	-193	0	-141	468659
-12744	-17028	357	218	139	-193	2	-139	468690
-12200	-21064	357	217	137	-193	4	-135	469189
-13692	-18098	357	216	139	-190	5	-138	469938
-14277	-19444	356	215	137	-193	-3	-138	471030
-13972	-16689	357	218	140	-188	0	-141	471498
-14350	-20437	357	218	137	-189	3	-140	471623
-15647	-18838	356	217	140	-194	4	-142	472761
-12783	-18205	353	214	137	-193	4	-139	473027
-13490	-20509	354	216	139	-193	0	-138	473354
-14920	-18922	358	213	140	-192	1	-137	473401
-16051	-18837	356	217	140	-192	5	-142	474087
-12974	-17643	356	215	140	-193	2	-142	474212
-14311	-20694	355	213	139	-190	4	-141	474852
-14170	-19270	360	216	135	-190	3	-140	475476
-12927	-19151	358	216	139	-190	4	-139	476615
-11191	-19094	356	216	140	-190	1	-142	479735
-11951	-19462	355	216	137	-188	2	-137	480062
-12755	-18437	359	217	139	-190	2	-141	481076
-13083	-18822	358	216	137	-190	3	-140	482215
-12385	-21176	356	217	139	-190	3	-141	483151
-13141	-19009	356	217	138	-192	4	-139	483416
-12299	-16657	359	217	140	-187	3	-138	484929
-11208	-19052	355	216	141	-189	-2	-136	485429
-12833	-18575	361	215	140	-191	3	-139	487441
-11112	-18958	357	218	140	-190	4	-139	488798
-13044	-19442	360	215	137	-189	2	-138	489219
-12857	-19624	357	218	140	-191	0	-138	489469
-12161	-18955	360	217	138	-192	1	-143	490124
-10204	-18863	357	218	138	-187	3	-140	490764
-12552	-20512	357	215	140	-192	0	-140	491138
-15187	-20079	356	218	140	-188	1	-137	491247
-14215	-19690	358	212	139	-190	2	-141	492589
-13060	-19019	359	216	137	-190	2	-136	493447
-13587	-16085	357	216	139	-189	1	-138	494180
-10629	-18986	358	216	137	-191	1	-137	494680
-15641	-21263	354	216	140	-189	2	-138	496817
-12366	-18657	356	216	138	-188	2	-140	496973
-12294	-19170	355	219	134	-189	3	-138	498626
-12444	-17745	358	215	137	-192	2	-139	500186
-12858	-19276	356	213	138	-189	-1	-136	500249
-15425	-18890	355	215	139	-188	1	-141	500452
-13013	-19368	356	216	138	-191	1	-141	501653
-10866	-19222	359	214	135	-189	3	-143	502105
-16410	-18906	358	219	141	-189	0	-139	502932
-12202	-18746	359	219	140	-191	3	-137	503150
-15800	-18735	354	220	139	-190	1	-142	503509
-11038	-19456	358	215	137	-189	0	-136	506208
-13202	-17658	349	219	140	-192	0	-138	506317
-10739	-18940	359	216	139	-186	0	-143	506395
-13196	-18812	355	215	139	-191	3	-140	506504
-13507	-16216	357	216	138	-190	5	-137	506988
-13069	-16620	356	216	139	-192	-2	-139	507035
-14512	-18069	357	217	141	-192	-1	-139	507784
-13398	-21219	358	217	142	-193	-2	-141	508938
-14454	-18155	356	218	139	-192	0	-141	508954
-12036	-17805	355	216	141	-190	3	-144	511060
-11695	-19255	358	216	140	-190	1	-138	512869
-13491	-19322	356	217	139	-188	2	-139	513353
-12661	-17175	357	217	138	-191	2	-137	514211
-14367	-18882	352	216	140	-191	1	-138	514601
-10090	-18590	354	213	141	-195	1	-142	514648
-16027	-19845	355	219	139	-190	1	-140	516847
-12628	-19347	356	216	136	-190	2	-138	517830
-13337	-18120	355	217	137	-190	1	-141	518298
-16026	-19321	355	217	136	-194	3	-138	518719
-16187	-18065	357	215	137	-191	2	-138	520123
-13993	-19480	354	214	138	-191	2	-140	520388
-16887	-18497	360	217	138	-191	0	-138	520544
-14721	-18994	357	217	136	-192	-1	-139	522182
-13838	-18234	356	216	140	-191	2	-143	522806
-13237	-19057	356	213	138	-188	-2	-139	524850
-12105	-18950	356	217	137	-191	4	-140	526129
-13705	-20062	356	215	137	-192	3	-143	526941
-11448	-18598	356	217	138	-194	-1	-141	527471
-13168	-16625	355	215	137	-191	5	-142	529093
-15826	-18720	354	215	140	-190	5	-140	529452
-14013	-19941	356	218	135	-192	-2	-139	529983
-13055	-18845	348	214	136	-189	-1	-140	530373
-13891	-20281	357	213	141	-189	3	-140	535723
-12653	-17615	357	215	140	-187	-2	-139	536347
-12915	-19138	354	213	138	-190	2	-141	540435
-13073	-20022	354	217	138	-192	-2	-140	542338
-12354	-18965	355	217	137	-190	2	-139	542806
-12054	-18840	357	216	137	-189	4	-138	544584
-12318	-16488	358	215	137	-190	3	-142	544834
-13004	-20712	358	218	139	-192	0	-140	545146
-13079	-19085	358	217	137	-191	3	-140	545661
-13606	-19122	353	216	136	-189	1	-140	547626
-13593	-18146	356	216	138	-190	1	-137	551089
-12220	-9327	357	215	141	-193	3	-142	551292
-11927	-18642	357	214	140	-192	4	-142	552540
-16724	-18487	360	217	138	-194	1	-140	555301
-16671	-18824	356	218	136	-193	0	-138	555645
-13681	-17803	361	214	137	-190	5	-139	555910
-15815	-18043	356	214	140	-192	2	-138	557408
-15250	-20462	359	216	134	-191	2	-137	557532
-12116	-19794	356	218	139	-191	3	-137	557642
-12749	-19572	357	212	138	-192	3	-140	560138
-15286	-18827	358	214	140	-190	-4	-137	560746
-16874	-19428	357	216	136	-194	1	-137	561089
-12625	-18983	356	215	137	-189	4	-136	561120
-11655	-19223	356	214	136	-193	3	-137	562961
-13701	-18430	357	215	140	-189	0	-140	564911
-15787	-18540	358	213	135	-189	0	-138	564974
-13179	-16248	358	213	139	-188	-3	-142	565036
-12507	-18717	355	217	135	-189	4	-138	565800
-12809	-15849	356	216	137	-189	6	-140	566534
-14999	-19212	357	216	136	-190	5	-137	566627
-15526	-19512	354	215	137	-193	1	-139	569498
-16541	-19321	358	215	141	-192	4	-138	571619
-15076	-19111	355	212	138	-192	-2	-139	571635
-11566	-19657	354	214	138	-192	5	-140	572040
-12295	-18715	354	215	135	-189	1	-140	572976
-12089	-19382	357	214	139	-190	1	-138	573101
-14454	-18879	357	217	139	-190	2	-142	574973
-15790	-19192	357	215	137	-192	5	-136	576034
-12940	-20522	357	216	141	-191	4	-138	576642
-14283	-20832	357	215	137	-192	3	-137	577953
-12638	-19628	358	216	137	-193	4	-138	578078
-14558	-19870	356	218	137	-190	1	-141	578561
-13891	-16849	354	212	137	-192	1	-136	579232
-13710	-21023	357	217	137	-192	3	-138	579840
-11175	-18878	352	215	136	-192	-3	-137	579856
-12609	-16403	357	214	137	-190	5	-136	580464
-12243	-19286	358	216	135	-193	2	-141	581385
-15938	-18414	353	215	137	-192	2	-137	581603
-13053	-20091	355	215	140	-189	6	-140	583101
-16590	-19438	358	217	139	-191	3	-138	583194
-13233	-18825	354	217	137	-194	4	-137	584099
-12160	-19422	358	215	138	-191	2	-138	585238
-10342	-19523	358	216	135	-193	2	-139	585659
-15174	-18866	355	217	139	-191	3	-137	587219
-13435	-16953	358	215	139	-192	4	-141	588311
-16723	-18853	351	213	137	-191	5	-140	589793
-11298	-16923	357	215	140	-191	3	-146	590480
-11244	-19560	354	213	139	-196	2	-140	591915
-12978	-18647	357	213	138	-191	1	-137	592024
-16389	-20585	359	216	135	-193	2	-138	593584
-13065	-20683	356	211	136	-193	5	-138	597001
-12726	-19271	357	213	142	-191	6	-140	598108
-12163	-17146	355	214	139	-193	4	-138	598529
-12183	-18601	356	215	138	-189	1	-136	599138
-12751	-18957	355	216	140	-191	1	-138	599528
-12865	-20517	359	215	140	-193	3	-136	599777
-14853	-19455	353	215	138	-191	5	-140	599824
-12992	-17301	356	214	136	-192	4	-140	600667
-14975	-20243	356	215	140	-190	7	-139	600869
-13458	-18381	357	216	139	-190	4	-137	601681
-12759	-20084	359	217	138	-192	3	-136	602710
-13058	-17487	354	216	137	-192	5	-141	603584
-12767	-18673	357	214	138	-192	1	-137	605565
-13026	-20224	354	215	135	-188	3	-139	606329
-13568	-20156	357	216	139	-190	5	-137	607000
-14618	-20574	356	219	139	-190	4	-140	609091
-13924	-18602	358	215	139	-189	0	-138	609403
-12187	-19953	353	216	136	-193	5	-139	609699
-14104	-19412	356	215	135	-189	2	-139	610463
-12131	-19975	356	217	139	-188	3	-136	610604
-14753	-18481	353	213	138	-192	3	-140	612913
-12757	-15832	358	217	138	-193	6	-139	613240
-12891	-20759	356	214	138	-191	7	-140	615019
-14751	-18693	356	215	140	-192	5	-140	616126
-12863	-19435	356	215	139	-190	4	-139	616937
-13048	-19283	354	217	135	-192	2	-139	618419
-14786	-19174	355	214	138	-191	2	-137	618685
-16983	-18768	355	217	138	-191	-1	-139	619090
-12163	-19256	356	216	138	-189	-1	-140	619964
-14850	-19501	353	215	138	-191	4	-141	621586
-11415	-18639	355	213	136	-190	3	-140	622117
-16600	-19098	355	217	135	-190	4	-138	623318
-12576	-20972	356	216	139	-188	4	-139	623552
-16213	-19520	355	212	137	-192	4	-139	625580
-13941	-19846	358	215	134	-194	1	-137	626048
-12836	-19266	355	218	140	-191	1	-138	627124
-12522	-17789	353	214	137	-191	4	-142	628107
-15307	-18596	358	215	138	-188	1	-138	628435
-13171	-19015	358	213	139	-191	4	-139	630198
-12367	-19455	354	212	141	-190	4	-138	630244
-11141	-19153	358	217	138	-196	3	-138	630962
-5254	-19554	356	216	137	-190	3	-140	631648
-13417	-15776	357	215	137	-191	0	-140	632366
-14172	-19077	354	217	138	-189	4	-138	632662
-12701	-19241	354	214	137	-189	0	-137	634597
-14057	-19092	356	216	138	-190	4	-139	634612
-15687	-19272	356	218	139	-193	3	-139	634706
-12773	-18554	355	214	136	-189	2	-142	635611
-13506	-16692	356	216	139	-193	5	-140	635985
-13132	-17503	356	221	140	-190	5	-140	636781
-15482	-17155	356	216	136	-191	2	-139	638809
-14625	-18820	356	218	139	-196	0	-139	641242
-13207	-17554	355	214	138	-193	4	-138	641445
-13333	-20400	356	216	139	-191	2	-143	645657
-11946	-18633	351	216	139	-192	2	-143	651133
-12599	-19161	351	219	138	-191	3	-142	651897
-11869	-17221	357	221	138	-192	0	-143	651975
-15804	-18605	358	215	137	-188	2	-141	652974
-13581	-19352	357	219	138	-188	3	-140	653816
-13555	-18967	358	218	140	-194	0	-139	655595
-13510	-19066	358	216	136	-191	5	-141	656031
-13248	-18209	355	218	140	-192	3	-143	657888
-12439	-16116	357	217	140	-194	4	-141	658808
-15242	-19323	355	217	138	-194	3	-137	659822
-12232	-19068	356	215	137	-188	2	-138	660321
-12649	-19822	358	215	138	-194	3	-139	660509
-10713	-20430	357	214	138	-190	0	-143	661616
-13762	-20705	356	217	137	-190	1	-141	661694
-12736	-19384	352	218	138	-189	3	-139	663067
-12629	-18916	354	219	139	-190	4	-142	663285
-12362	-19235	356	218	137	-190	1	-139	664705
-14546	-18983	356	220	138	-190	6	-139	664908
-13459	-16058	354	217	139	-189	1	-143	665126
-13092	-19537	355	216	140	-190	3	-138	665251
-12359	-20250	356	214	138	-193	1	-140	667107
-11718	-18956	353	212	137	-190	1	-138	667544
-14311	-18726	354	215	142	-191	2	-143	668199
-12176	-20433	354	211	138	-190	2	-141	668387
-13703	-19483	358	213	140	-192	4	-140	669120
-12248	-17906	355	217	138	-189	0	-138	669713
4902	-19363	353	211	138	-193	2	-143	670368
4783	-18433	355	215	138	-190	2	-140	671163
-11156	-19013	354	216	138	-188	-2	-140	671585
-14551	-16490	357	215	138	-191	4	-142	672614
-12708	-18256	355	216	138	-191	4	-144	674268
-12784	-17333	356	219	138	-190	1	-140	675204
-12728	-19327	356	219	138	-189	1	-144	675531
-13353	-18451	357	218	139	-190	1	-141	675687
-12890	-17736	356	214	139	-190	3	-139	676857
-13186	-19431	357	217	137	-189	1	-138	677481
-12252	-18792	351	217	139	-189	-1	-142	677715
-12397	-18979	350	217	137	-190	1	-139	678745
-15726	-18723	355	215	138	-189	3	-140	678839
-12237	-18359	356	215	143	-191	2	-141	679104
9347	-18958	354	219	141	-190	3	-145	679821
-12765	-19209	351	217	138	-189	1	-136	681428
-12105	-20949	356	218	139	-193	7	-142	683597
-13598	-18309	356	215	135	-194	3	-138	683784
-13210	-17373	355	220	137	-189	1	-140	685141
-16726	-19464	353	215	140	-192	0	-141	685344
-13158	-17868	354	219	139	-191	3	-140	685375
-13821	-16598	357	218	137	-190	3	-141	685734
-12255	-18583	358	217	140	-193	1	-141	685921
-12515	-19898	354	211	138	-188	1	-141	686405
-11743	-18044	356	218	140	-189	4	-138	687466
-10665	-17189	355	217	137	-188	1	-145	689260
-12133	-18648	357	216	141	-192	7	-141	689774
-13064	-19591	354	215	138	-190	3	-139	689852
-13904	-15798	358	214	139	-190	3	-144	690133
-16921	-21167	358	217	139	-192	1	-138	690398
-11904	-20013	357	217	139	-193	1	-141	690508
-12677	-18786	355	219	138	-190	5	-141	691990
-13002	-19115	356	219	138	-191	4	-141	692832
-13491	-16866	354	217	134	-193	0	-144	693300
-14251	-20083	358	216	139	-189	4	-137	694657
-13263	-19970	356	215	137	-192	-1	-138	696404
-12840	-15975	354	212	138	-188	2	-139	698074
-16687	-19228	356	218	136	-188	4	-141	700757
-10480	-19954	358	216	139	-193	2	-143	702208
-15686	-16716	357	218	140	-188	4	-141	702457
-12872	-19334	354	219	137	-191	2	-139	703393
-11555	-18059	352	219	136	-192	3	-143	703409
-12348	-18565	353	217	137	-190	3	-140	703612
-12970	-19027	355	216	136	-193	-1	-143	703674
-16871	-19125	359	217	140	-191	4	-139	705858
-14089	-18981	360	216	137	-190	-1	-139	707761
-14268	-19991	357	219	139	-189	5	-137	709524
-15873	-18945	360	215	139	-192	2	-141	709805
-15920	-18777	360	219	137	-190	-1	-142	710023
-12311	-16839	357	216	137	-189	5	-138	710148
-12405	-21092	357	219	139	-190	-4	-141	710179
-13955	-18871	357	216	139	-190	-3	-140	710210
-12599	-19851	356	219	137	-189	2	-138	710616
-15776	-19189	358	217	140	-190	4	-138	711458
-13215	-17068	359	220	142	-192	1	-139	711568
-11629	-19128	356	215	139	-195	1	-139	711614
-13853	-18600	356	218	139	-190	2	-138	712020
-13525	-18903	355	216	139	-190	1	-140	713284
-13120	-19405	357	216	141	-188	1	-137	714532
-13158	-18546	357	217	138	-189	3	-139	714859
-13122	-18538	357	218	141	-189	0	-140	715296
-13224	-16155	358	217	141	-188	3	-141	715780
-12123	-16013	360	216	141	-190	3	-138	715889
-12192	-18635	358	214	142	-189	4	-144	715983
-14495	-19788	355	214	141	-190	0	-142	716295
-13057	-18892	359	217	135	-192	5	-138	716887
-12895	-19346	356	217	140	-192	2	-141	717558
-13165	-20457	356	217	136	-190	6	-140	720647
-13376	-17116	359	219	140	-193	4	-139	723486
-15781	-18805	357	215	139	-192	4	-138	723720
-12832	-19262	357	220	141	-189	3	-140	725031
-11216	-18533	357	219	137	-189	0	-139	725093
-15595	-18880	357	219	133	-190	0	-139	725140
-12211	-17004	359	220	142	-188	2	-140	725155
-12308	-21086	358	219	136	-190	3	-141	725374
-16553	-17675	355	216	140	-188	4	-140	728057
-13464	-16290	354	214	139	-190	1	-143	728104
-12999	-19566	354	215	140	-190	3	-141	731068
-12536	-20657	359	219	141	-189	2	-141	731661
-12634	-18513	356	217	140	-193	5	-139	732207
-13087	-18523	358	216	140	-192	1	-140	733392
-16339	-21003	357	214	140	-190	4	-140	735763
-10818	-19518	355	216	141	-193	-3	-142	737479
-16656	-20284	358	212	137	-191	2	-140	739383
-12033	-17961	355	212	138	-191	3	-139	739585
-12545	-16631	353	218	138	-188	3	-139	740116
-15458	-19433	356	219	138	-192	4	-145	740163
-11744	-18914	356	219	140	-189	3	-140	741067
-12472	-16292	354	217	141	-190	2	-141	742347
-15080	-18897	356	216	137	-192	4	-142	742565
-15495	-19555	357	216	138	-192	2	-138	744141
-12762	-19502	356	217	142	-189	2	-138	744687
-11146	-19434	356	216	140	-191	0	-137	744905
-15044	-19905	358	219	140	-190	3	-142	744968
-13596	-19568	358	217	140	-191	1	-137	746200
-13107	-18841	355	215	142	-190	2	-140	746512
-12880	-20395	357	213	139	-190	3	-137	747994
-13504	-17381	355	218	138	-190	4	-140	748166
-13471	-15763	356	217	138	-188	4	-139	748384
-10921	-18852	357	220	137	-191	6	-139	748602
-13936	-21089	355	216	139	-191	6	-138	748930
-12390	-18038	358	216	134	-191	3	-139	749445
-13820	-19200	354	218	136	-189	3	-139	753969
-10856	-19395	358	216	136	-195	2	-138	754608
-10183	-19449	357	218	140	-189	2	-138	755264
-13573	-16880	353	218	138	-189	6	-139	755529
-13163	-18977	354	216	138	-193	3	-138	756683
-13560	-18651	357	216	139	-187	2	-136	756730
-14303	-19554	356	220	141	-192	4	-138	757011
-13707	-19040	357	215	135	-191	4	-136	757104
-10111	-19339	354	216	138	-191	2	-137	757541
-11124	-19628	355	215	139	-189	5	-146	757869
-12309	-19117	354	215	139	-194	0	-140	758462
-10215	-19390	354	218	137	-190	5	-140	758805
-14283	-19354	357	217	136	-190	1	-142	759850
-12419	-19506	356	217	137	-192	3	-144	760053
-15453	-18389	356	213	136	-188	1	-140	760193
-15005	-18796	351	215	137	-192	5	-140	762908
-11862	-19156	353	217	140	-192	7	-138	763469
-15455	-18881	350	216	139	-189	3	-146	763485
-13570	-17579	353	213	136	-191	1	-141	764670
-13548	-19138	350	216	137	-190	3	-140	764795
-13293	-20958	355	215	138	-190	-2	-136	765201
-12271	-19519	356	217	138	-193	-1	-137	765918
-11985	-19065	355	214	138	-192	5	-138	766995
-12972	-19276	356	219	140	-193	3	-140	767666
-13330	-18822	355	217	140	-190	4	-135	769787
-14060	-19095	356	217	136	-192	4	-138	770364
-15149	-18917	357	220	140	-191	3	-139	770396
-12232	-19031	357	218	138	-193	4	-136	770801
-13492	-19426	353	217	138	-192	6	-139	771254
-12872	-16214	353	218	139	-187	4	-140	771597
-12846	-18909	355	217	138	-187	0	-135	772829
-12838	-19365	357	218	140	-190	5	-141	775466
-14866	-20985	356	217	139	-193	7	-137	776074
-12453	-17730	356	217	138	-190	1	-137	776121
-12830	-16974	357	217	138	-192	2	-139	776917
-10291	-19775	359	215	140	-191	-1	-140	777213
-13114	-16255	356	213	136	-190	5	-137	779725
-14867	-19232	353	218	141	-191	3	-139	779740
-12458	-20775	355	218	138	-192	3	-136	781222
-10362	-19160	352	216	139	-192	3	-137	784015
15024	-19058	356	216	138	-193	6	-141	785387
-14243	-18230	350	215	138	-192	6	-138	786074
-10124	-18974	354	210	139	-190	4	-141	786167
-14938	-21233	352	218	137	-190	4	-137	787197
-12614	-19408	355	214	138	-190	5	-140	787400
-12308	-19260	354	215	137	-190	2	-138	787649
-13324	-17679	353	217	137	-191	5	-137	789428
-12588	-20721	354	216	137	-192	4	-139	791347
-14443	-18683	355	217	141	-195	4	-140	791643
-13224	-16003	353	218	137	-190	3	-142	791737
-11071	-20864	355	216	135	-192	-2	-138	792953
-13586	-19527	355	215	136	-192	4	-140	793297
-10954	-18907	355	217	137	-188	1	-142	793952
-13240	-18933	356	218	138	-187	1	-140	793967
-11519	-19065	353	215	140	-192	5	-140	794233
-13443	-18341	355	217	140	-192	3	-141	794467
-13780	-20664	352	216	138	-191	7	-138	794716
-11430	-19346	355	217	138	-193	3	-140	795044
-12755	-19526	351	217	136	-192	6	-141	795153
-13841	-19543	356	217	136	-191	1	-138	795418
-12492	-18592	354	213	136	-192	5	-139	796027
-13977	-18978	354	217	137	-190	2	-140	796729
-10389	-19114	354	218	136	-192	0	-140	797306
-12662	-21003	354	218	141	-190	3	-139	801065
-16728	-19276	356	216	135	-195	7	-138	801128
-13375	-19508	355	217	140	-190	4	-139	801923
-12985	-19098	355	217	139	-192	1	-140	802501
-12163	-15995	356	217	139	-188	5	-140	803686
-13333	-19037	352	219	140	-191	5	-137	803983
-16782	-20845	355	218	138	-189	3	-138	804638
-12842	-20969	353	216	140	-191	4	-140	806011
-12526	-17959	354	217	141	-193	6	-139	806806
-12094	-16660	357	216	138	-190	2	-140	806884
-12689	-19083	354	217	140	-191	3	-142	807118
-12665	-18907	356	213	139	-192	2	-138	808195
-16966	-19392	354	213	137	-190	4	-140	808429
-12939	-17996	354	218	140	-191	2	-137	808647
-13180	-20295	355	215	139	-193	3	-135	810410
-14709	-18046	356	215	138	-193	3	-139	810628
-13629	-18779	355	217	138	-193	3	-138	810816
-12251	-19375	357	215	139	-190	3	-140	812157
-10152	-20961	357	218	137	-194	4	-139	812578
-13753	-19690	354	218	140	-190	0	-137	812781
-12298	-18954	354	217	139	-193	6	-135	815043
-12885	-19190	356	216	139	-190	1	-142	817960
-12725	-19883	357	217	139	-190	1	-142	819396
-13116	-18899	355	215	139	-193	2	-140	819879
-12816	-19723	356	216	139	-191	3	-140	822001
-12615	-17566	358	219	135	-197	4	-139	822469
-16603	-19358	357	217	139	-193	4	-138	823732
-15803	-19287	354	214	138	-193	-1	-141	823920
-13592	-20687	356	217	136	-192	4	-139	824278
-11696	-18504	356	215	136	-192	3	-140	826306
-12920	-18916	356	218	138	-194	2	-136	827835
-12849	-19034	357	220	141	-190	4	-141	828178
-10786	-19738	351	215	139	-193	4	-138	828272
-13030	-18627	356	213	138	-191	5	-137	828802
-13105	-19934	355	214	137	-191	3	-139	828818
-16317	-18879	355	214	138	-192	4	-139	830596
-13398	-17922	355	216	139	-193	2	-138	830659
-13715	-19425	355	215	137	-195	3	-137	832234
-13726	-19144	358	216	134	-190	4	-136	832687
-15220	-19178	349	215	138	-191	3	-138	834138
-16923	-19006	356	214	139	-191	6	-138	835651
-13917	-20108	354	215	135	-191	3	-137	836883
-13568	-18594	354	216	138	-191	4	-139	837164
-11209	-20003	357	216	138	-190	0	-139	837539
-12798	-19161	358	216	138	-192	5	-134	837554
-11812	-18800	354	216	138	-193	1	-135	838053
-16825	-20071	353	214	138	-194	1	-139	838381
-13136	-16873	355	217	138	-191	8	-137	839005
-13751	-18061	357	217	140	-190	2	-137	839676
-11436	-19222	358	217	138	-190	5	-137	840284
-15294	-18749	357	218	141	-192	5	-138	842453
-13381	-18853	355	217	137	-193	3	-137	843997
-10760	-19318	354	218	136	-193	3	-138	844231
-13594	-19512	356	215	138	-197	4	-139	844855
-11107	-18748	356	218	140	-192	5	-137	844933
-13735	-19444	355	213	136	-192	0	-141	845370
-16036	-18843	359	214	138	-188	4	-136	845432
-13096	-16707	357	219	140	-190	2	-138	845713
-12227	-19124	353	215	140	-191	1	-134	845931
-10789	-18799	355	217	138	-190	3	-140	846618
-16700	-19368	355	215	137	-191	6	-137	847257
-16566	-18992	355	217	136	-193	3	-138	847289
-13054	-18300	353	214	136	-189	0	-139	848334
-13710	-20742	354	216	134	-192	2	-136	848349
-13292	-19751	353	212	138	-190	2	-140	848568
-13278	-15776	357	217	140	-192	3	-139	849707
-15229	-19188	354	217	139	-191	1	-138	849831
-16051	-18731	355	215	140	-194	3	-139	850861
-10173	-18825	358	216	138	-192	3	-138	850923
-12186	-20892	353	218	140	-192	7	-137	852047
-13962	-5337	357	218	140	-190	4	-138	853560
-11516	-18996	358	218	141	-190	4	-138	854387
-12952	-16248	356	219	136	-190	4	-137	855931
-15810	-19528	354	217	141	-190	5	-138	855993
-12760	-18477	356	214	141	-193	3	-136	857351
-14650	-16028	357	216	138	-191	6	-138	858599
-12843	-16395	354	219	137	-193	2	-139	858755
-15630	-20803	358	214	136	-189	-3	-137	859098
-13048	-15924	354	216	138	-188	5	-139	859722
-12480	-20652	355	216	137	-191	3	-139	861547
-11773	-19182	353	221	135	-189	4	-139	863669
-13575	-18841	356	220	141	-189	3	-144	863825
-10333	-18902	354	212	140	-196	6	-136	865775
-13208	-19058	351	219	141	-196	2	-138	866305
-14209	-18654	351	219	136	-192	1	-141	866913
-12115	-18822	355	221	137	-192	3	-142	867491
-13292	-17907	352	219	139	-193	5	-138	867787
-13184	-18868	350	215	138	-192	3	-141	867974
-12396	-17530	350	219	137	-191	0	-137	868567
-12887	-17539	351	215	139	-191	0	-135	868583
-10142	-18558	353	216	138	-192	3	-139	868645
-13022	-18818	355	212	138	-192	2	-137	868786
-11412	-19351	355	216	140	-190	6	-139	869191
-13126	-16260	353	217	137	-191	3	-140	869675
-12627	-19192	351	218	138	-189	4	-140	869737
-14654	-19108	354	218	141	-192	6	-137	870377
-11578	-17585	354	214	141	-189	5	-139	870377
-10639	-17299	352	215	140	-194	4	-145	872982
-13733	-15938	355	217	143	-192	3	-136	873403
-14578	-18709	353	215	135	-192	3	-138	873668
-11673	-19033	353	215	137	-190	1	-137	876710
-12004	-20866	356	217	139	-191	4	-136	877100
-12196	-17221	357	218	137	-191	4	-139	877303
-13203	-16072	351	216	136	-192	3	-140	877958
-12574	-19985	356	214	137	-192	1	-139	878442
-12625	-20361	355	217	140	-194	4	-138	878988
-12199	-18646	357	218	138	-191	1	-138	879019
-14166	-16417	355	216	137	-190	2	-137	879362
-13339	-20434	357	218	138	-193	2	-140	882046
-13490	-19376	353	214	137	-193	4	-138	884105
-13541	-17708	355	214	138	-191	8	-136	885930
-13938	-19347	354	219	137	-193	0	-141	888644
-12752	-19165	357	217	139	-192	4	-140	889034
-13617	-18465	356	217	139	-191	4	-138	892404
-14015	-17168	354	215	140	-192	4	-138	893590
-15245	-19502	354	216	136	-190	0	-136	893933
-13171	-18474	354	216	140	-191	4	-136	894011
-11433	-19017	354	218	137	-190	0	-143	894401
-11303	-19065	355	214	139	-189	3	-141	899440
-12459	-19680	355	215	139	-192	1	-141	899627
-15872	-21199	353	216	140	-195	4	-138	900688
-12417	-19823	355	218	137	-190	6	-139	900969
-12997	-19657	353	215	137	-190	5	-141	901140
-14922	-19276	352	212	136	-194	1	-139	901296
-11633	-21151	358	219	137	-191	5	-137	903714
-16491	-19031	353	215	137	-192	6	-140	903714
-13554	-17690	351	217	140	-191	2	-141	904619
-13014	-16573	354	218	138	-191	2	-137	905555
-13364	-18689	353	219	139	-191	4	-138	905742
-13850	-19231	354	216	138	-193	3	-139	906039
-11276	-19153	357	219	139	-190	6	-139	906288
-13642	-16449	357	218	136	-192	0	-138	908691
-12977	-19238	353	216	140	-188	0	-137	909237
-12566	-20611	353	219	139	-191	5	-140	910703
-12748	-18934	355	215	137	-189	5	-140	913901
-14769	-16315	356	216	139	-189	3	-137	918051
-12367	-18509	354	217	138	-191	-1	-138	918659
-13978	-19514	355	215	136	-189	2	-143	918877
-13380	-18890	354	219	136	-191	2	-136	919049
-16892	-18820	354	215	138	-188	0	-139	919361
-16352	-18850	356	220	140	-189	4	-138	919455
-14279	-18371	356	216	140	-193	4	-140	919657
-12408	-18486	350	215	139	-189	2	-142	919751
-12805	-20182	351	219	139	-192	3	-140	919969
-12509	-19306	353	215	141	-192	5	-138	921186
-13679	-19010	356	217	138	-188	-3	-141	921779
-12899	-18729	352	213	137	-189	7	-139	923230
-15597	-19150	356	217	139	-200	3	-142	924181
-15019	-18843	353	216	141	-191	3	-142	924634
-16010	-19400	355	215	138	-191	-1	-137	925195
-14744	-17068	352	215	140	-192	3	-142	927395
-13512	-19291	355	216	139	-192	4	-138	928097
-13758	-20662	355	215	137	-192	3	-139	928971
-16111	-19681	352	211	139	-193	3	-140	930593
-11906	-20972	348	217	138	-191	2	-146	931123
-16991	-18872	354	215	142	-194	1	-143	932512
-12163	-18944	358	215	138	-189	1	-139	933339
-12821	-19034	353	215	142	-190	3	-141	936084
-12580	-17085	352	213	140	-190	4	-137	936381
-13650	-19296	355	217	140	-191	4	-141	937629
-13156	-19143	354	217	138	-192	-1	-138	938362
-12984	-16349	356	217	138	-191	-2	-137	939002
-14481	-19928	353	217	138	-193	6	-139	939938
-13501	-20802	355	217	142	-192	2	-139	940094
-15219	-19304	356	211	135	-193	1	-138	940749
-15502	-19367	354	218	139	-192	3	-139	940858
-11067	-19149	353	216	140	-191	3	-137	941888
-11986	-19699	353	214	136	-191	4	-138	942044
-16758	-19333	358	215	141	-192	4	-143	942106
-13728	-16309	356	217	138	-193	3	-139	943338
-10115	-18978	354	220	137	-194	3	-139	943338
-13908	-19028	353	217	137	-192	2	-140	944087
-15540	-19330	356	218	138	-189	3	-138	944867
-11008	-18685	353	217	139	-190	-1	-139	945086
3055	-18603	354	216	141	-191	2	-139	946380
-16643	-18956	354	217	139	-190	1	-140	946646
-14849	-19667	352	218	140	-192	1	-139	947316
-12548	-19569	357	215	141	-189	0	-139	948455
-12250	-19204	353	213	135	-193	1	-136	949344
-13137	-17562	351	217	138	-191	1	-138	949859
-12207	-20844	356	217	137	-189	5	-140	950062
-10951	-19963	353	220	140	-191	1	-139	950436
-15287	-20146	353	215	137	-192	2	-139	950951
-13317	-16449	354	219	141	-192	2	-138	952262
-12036	-20286	354	217	137	-190	2	-137	952542
-11832	-19371	353	218	138	-192	2	-139	952589
-12610	-16558	354	214	138	-192	4	-139	952792
-14910	-19149	351	214	138	-193	7	-139	953868
-13458	-19013	354	212	136	-189	5	-139	954446
-12339	-17896	355	215	139	-195	7	-137	954680
-13640	-20663	354	216	135	-189	4	-141	956006
-14093	-20676	354	216	140	-193	1	-139	956739
-12693	-20692	352	213	136	-191	4	-138	957456
-14587	-17772	355	214	138	-191	1	-137	957550
-12432	-20502	351	215	137	-194	2	-142	958049
-12930	-18383	353	216	137	-191	1	-141	959843
-12154	-17753	354	216	136	-193	2	-140	960124
-13337	-18656	353	217	137	-191	-1	-137	961700
-12376	-13426	355	213	140	-190	1	-138	962620
-13298	-17261	354	219	135	-192	4	-145	963369
-15223	-19012	353	215	141	-193	4	-139	964087
-10350	-19095	354	214	138	-190	3	-138	964227
-15006	-21226	354	216	138	-194	5	-141	964851
-12209	-19118	352	215	133	-192	1	-141	966770
-14230	-18882	352	215	136	-190	5	-139	967222
-12403	-19264	351	216	135	-192	4	-137	967441
-12843	-20691	353	217	140	-188	4	-135	967612
-12957	-16336	354	213	137	-191	3	-138	967846
-12710	-18991	354	215	137	-192	2	-138	968189
-14695	-21188	351	215	136	-191	2	-140	968611
-12853	-16100	355	216	138	-190	4	-139	969313
-13567	-17678	354	214	138	-192	1	-141	969422
-13454	-19656	357	215	137	-191	7	-134	970358
-12953	-16499	353	215	141	-190	1	-137	970935
-13011	-19426	354	216	140	-191	5	-138	972261
-16398	-18562	353	219	139	-189	2	-140	973805
-13903	-19342	356	216	142	-192	4	-139	974492
-15240	-19148	357	217	138	-192	5	-138	974663
-12842	-21054	355	217	141	-192	4	-138	976832
-12223	-19081	353	219	139	-191	3	-143	976879
-13351	-16201	351	215	141	-192	5	-138	977627
-11513	-18080	355	216	140	-192	1	-140	978236
-15938	-19225	354	217	141	-191	4	-138	978267
-12220	-19113	357	216	141	-191	2	-139	978329
-16978	-19871	351	217	140	-190	2	-138	978376
-13614	-17640	353	216	140	-193	3	-139	978485
-12052	-18529	353	215	134	-189	2	-139	979421
-13901	-20760	356	213	141	-190	3	-139	979765
-13158	-19619	352	215	136	-193	1	-142	981247
-14533	-19131	353	215	139	-191	1	-142	982573
-12483	-19727	353	217	140	-191	4	-139	983072
-12156	-19724	355	216	137	-192	4	-139	984086
-12755	-18882	354	208	140	-190	2	-140	984273
-12851	-19705	351	216	139	-193	-2	-137	986707
-12810	-18389	354	213	137	-191	2	-139	986785
-12962	-20542	356	217	140	-194	-1	-138	987206
-12500	-20382	354	211	137	-194	2	-138	987565
-15426	-19168	355	217	141	-190	2	-138	988781
-12844	-18477	353	218	137	-192	5	-137	991246
-11325	-19983	356	217	138	-190	7	-140	991574
-13182	-18104	352	210	141	-191	4	-140	993227
-15830	-18931	355	215	136	-193	5	-139	994990
-16084	-18513	353	214	141	-196	4	-139	997502
-12950	-17480	352	218	137	-192	2	-137	997627
-13875	-17456	356	214	138	-192	1	-139	998922
-13338	-18749	355	220	138	-191	3	-139	1000372
-12636	-19109	353	216	138	-193	3	-137	1000996
-13308	-18601	352	216	138	-193	0	-139	1002073
-14408	-17613	352	216	137	-189	5	-139	1002151
-11722	-18564	352	215	139	-191	5	-139	1002946
-13407	-19005	351	211	143	-191	3	-140	1004085
-13552	-19088	353	216	134	-190	2	-138	1004709
-14630	-18834	352	217	140	-196	1	-138	1004974
-11990	-16924	351	214	140	-191	4	-137	1007704
-15325	-19034	353	219	140	-189	7	-139	1008453
-11272	-19114	355	218	137	-191	3	-138	1009873
-12297	-18470	353	216	136	-189	1	-139	1011261
-13040	-18491	354	216	141	-191	2	-140	1012135
-13624	-19552	355	215	136	-192	3	-140	1012478
-12168	-18647	354	216	138	-192	-2	-138	1012806
-12439	-19099	352	216	135	-189	4	-138	1012899
-11820	-18600	354	216	135	-189	6	-139	1012977
-13610	-19231	355	215	140	-191	3	-141	1013383
-13939	-20073	354	216	138	-190	5	-141	1013648
-10442	-19690	354	214	137	-193	4	-138	1015068
-13520	-18058	352	215	140	-192	2	-140	1018500
-12074	-16906	352	217	138	-191	5	-137	1018640
-13599	-18891	354	216	140	-193	5	-137	1019092
-12599	-16485	348	215	138	-188	2	-140	1019748
-16700	-19757	354	217	138	-190	0	-139	1020465
-12543	-17653	353	219	140	-189	4	-137	1023320
-14481	-19682	352	220	137	-190	1	-140	1023445
-12286	-17242	353	216	138	-193	1	-140	1023835
-12584	-19553	353	217	136	-189	4	-137	1024802
-12621	-20953	352	215	139	-189	4	-136	1025114
-12697	-20127	355	212	141	-191	3	-138	1026674
-13819	-18340	353	215	138	-192	4	-139	1026690
-16836	-18660	355	217	138	-189	3	-138	1026908
-13438	-20984	354	217	142	-188	5	-142	1027064
-12435	-17779	355	213	140	-196	4	-137	1028141
-15192	-18907	354	217	142	-193	3	-134	1030403
-13593	-19491	353	217	140	-192	2	-142	1030403
-13154	-16666	358	217	141	-192	4	-138	1031214
-11594	-16120	356	219	140	-193	4	-137	1034568
-13078	-20399	355	217	138	-192	1	-139	1034942
-12735	-17047	351	215	140	-192	5	-139	1037079
-11988	-18809	356	216	140	-192	5	-138	1037813
-12861	-19412	356	216	140	-190	1	-138	1039295
-11913	-18714	355	216	141	-191	5	-140	1039388
-13806	-18923	353	215	139	-191	5	-139	1039529
-13797	-18993	354	215	142	-188	2	-139	1039809
-13976	-18976	353	216	135	-191	2	-139	1040652
-13021	-16493	355	219	139	-189	6	-137	1040839
-14184	-16358	353	220	141	-188	4	-139	1040948
-12835	-16296	354	216	140	-188	5	-139	1042118
-13600	-20785	356	214	140	-192	4	-137	1042149
-16172	-19107	354	214	140	-190	0	-138	1042290
-13321	-20343	356	215	139	-191	6	-139	1042321
-11692	-19026	354	217	140	-190	4	-140	1042368
-14384	-19095	354	219	136	-191	6	-138	1042446
-13202	-16141	353	216	140	-189	4	-139	1042508
-12928	-21177	355	212	139	-190	5	-139	1043522
-16006	-18625	354	217	138	-191	4	-141	1044755
-12384	-18452	352	215	140	-192	5	-137	1045457
-16244	-19300	356	216	138	-191	8	-138	1046065
-14728	-19461	355	216	136	-191	4	-140	1046923
-13052	-18570	354	212	139	-190	5	-136	1047469
-12031	-19969	354	214	142	-191	3	-136	1048140
-13445	-15993	356	216	137	-188	4	-136	1048218
-12433	-19828	354	217	138	-192	0	-138	1049325
-16277	-18753	355	217	140	-192	5	-138	1050636
-16676	-18899	356	216	141	-190	4	-138	1051587
-11497	-18055	353	215	137	-193	4	-140	1052430
-12939	-17875	356	216	138	-193	3	-140	1052664
-15787	-19153	355	211	140	-190	6	-138	1053397
-16483	-18948	354	216	140	-192	3	-140	1053912
-12752	-20019	354	213	141	-193	1	-140	1054770
-15221	-18872	354	218	142	-192	2	-138	1055051
-12644	-16068	354	214	135	-194	2	-138	1055129
-11778	-19015	357	217	141	-192	1	-140	1056049
-14641	-17535	353	216	140	-190	-2	-138	1056907
-16332	-18983	357	217	140	-191	5	-139	1057781
-12680	-20856	353	214	137	-192	1	-138	1057843
-12669	-19382	355	213	138	-195	2	-140	1057921
-13185	-18281	352	217	138	-192	5	-141	1058857
-16593	-18911	353	216	138	-192	2	-142	1061837
-14221	-18735	354	215	138	-194	3	-142	1062804
-10841	-19073	354	217	142	-189	5	-139	1063834
-16055	-16394	353	213	139	-189	3	-141	1064707
-12262	-18119	352	215	140	-193	2	-139	1065206
-13208	-18890	351	218	138	-191	0	-141	1065378
-12534	-19487	352	213	137	-189	4	-141	1065440
-12031	-19864	354	214	139	-191	3	-141	1065908
-13947	-20776	354	216	139	-192	4	-142	1067234
-12898	-16112	355	215	141	-190	2	-142	1067312
-13224	-18717	354	215	141	-191	4	-140	1067453
-10162	-19065	353	216	138	-191	4	-141	1069200
-12415	-17104	351	214	138	-191	-2	-141	1069434
-13288	-19593	352	216	139	-191	4	-139	1070479
