\relax 
\@writefile{toc}{\contentsline {section}{\numberline {1}Introduction}{1}}
\@writefile{toc}{\contentsline {section}{\numberline {2}Theory}{1}}
\@writefile{toc}{\contentsline {subsection}{\numberline {2.1}Positron Annihilation}{1}}
\@writefile{toc}{\contentsline {subsection}{\numberline {2.2}Coincidence Events}{1}}
\@writefile{toc}{\contentsline {subsection}{\numberline {2.3}PET Scan Source Location}{1}}
\@writefile{lof}{\contentsline {figure}{\numberline {1}{\ignorespaces \newline  $P_j$ represents the probability of event j occurring per unit time.\newline  $N_i$ represents the fraction of events that will be emitted at the appropriate angle from the source as to be incident on the detector surface (This is computed using the solid angle formula from [2]) \newline  Equation 1 shows the probability event j will be detected by detector $i$.\newline  Equation 2 shows the probability of detector i picking up event j in time k.\newline  Assuming independent events, equation 3 gives the likelihood of two simultaneosu events being picked up in the same timeframe.}}{2}}
\@writefile{toc}{\contentsline {section}{\numberline {3}Experimental Setup and Procedure}{2}}
\@writefile{toc}{\contentsline {subsection}{\numberline {3.1}Detectors, Equipment, and Setup}{2}}
\@writefile{lof}{\contentsline {figure}{\numberline {2}{\ignorespaces The experimental setup schematic. The blue angle represents the angular separation between the detectors, referenced as $\Theta $. The Procedure relies on varying this angle to find the location of a source. From The detector, the signal is sent to amplifiers, which output uni-polar and bi-polar pulses with higher amplitudes than the input signal. The uni-polar outputs are sent to the DDC-8 for digitization and represent the energy of an event. The bi-polar outputs are used as triggers for the DDC, so they are passed through a TSCA and Delay generator to set thresholds and widths of the signals. Finally, a logical unit is used to perform a logical AND of the signals, only allowing an output signal if both triggers are active at the same time. This is the trigger used to tell the DDC-8 to record an event.}}{3}}
\@writefile{toc}{\contentsline {subsection}{\numberline {3.2}Procedure}{4}}
\@writefile{toc}{\contentsline {subsection}{\numberline {3.3}Calibration}{4}}
\@writefile{toc}{\contentsline {section}{\numberline {4} Data Analysis}{4}}
\@writefile{lof}{\contentsline {figure}{\numberline {3}{\ignorespaces An illustration of the angular sweeping procedure. Detector 2 is held at a constant location while Detector 1's location relative to Detector 2 is changed. The Cartesian plane used to define the location of the hidden source is super imposed on the platform in this example.}}{5}}
\@writefile{toc}{\contentsline {subsection}{\numberline {4.1}Removing Coincidences}{6}}
\@writefile{toc}{\contentsline {subsection}{\numberline {4.2}Counting Events}{6}}
\@writefile{lof}{\contentsline {figure}{\numberline {4}{\ignorespaces An illustration of the coincidence removal process. Note the change in axes ranges after the coincidence removal. This particular example is from $\Theta _1$ for 170 degree separation. }}{7}}
\@writefile{lof}{\contentsline {figure}{\numberline {5}{\ignorespaces $\Theta _1$ vs Events per second.}}{7}}
\@writefile{toc}{\contentsline {subsection}{\numberline {4.3}Geometric Analysis}{7}}
\@writefile{lof}{\contentsline {figure}{\numberline {6}{\ignorespaces $\Theta _2$ vs Events per second}}{8}}
\@writefile{toc}{\contentsline {section}{\numberline {5}Discussion}{8}}
\@writefile{toc}{\contentsline {section}{\numberline {6}Conclusion}{9}}
\@writefile{toc}{\contentsline {section}{\numberline {7}Citations}{9}}
\@writefile{toc}{\contentsline {section}{\numberline {8} Appendix}{10}}
\@writefile{toc}{\contentsline {subsection}{\numberline {8.1}Data Tables}{10}}
\@writefile{lof}{\contentsline {figure}{\numberline {7}{\ignorespaces The Linear Conversion for both Detectors. }}{11}}
\@writefile{toc}{\contentsline {subsection}{\numberline {8.2}Linear Conversion}{11}}
\@writefile{lof}{\contentsline {figure}{\numberline {8}{\ignorespaces Event's captured by 110 degree separation between detector 2 and detector 1. Detector 2's absolute location was 130 degrees. Detector 1's absolute location was 240 degrees.}}{12}}
\@writefile{toc}{\contentsline {subsection}{\numberline {8.3}Theta 1 Figures}{12}}
\@writefile{lof}{\contentsline {figure}{\numberline {9}{\ignorespaces Event's captured by 120 degree separation. Detector 2's absolute location was 130 degrees. Detector 1's absolute location was 250 degrees.}}{13}}
\@writefile{lof}{\contentsline {figure}{\numberline {10}{\ignorespaces Event's captured by 130 degree separation. Detector 2's absolute location was 130 degrees. Detector 1's absolute location was 260 degrees.}}{13}}
\@writefile{lof}{\contentsline {figure}{\numberline {11}{\ignorespaces Event's captured by 150 degree separation. Detector 2's absolute location was 130 degrees. Detector 1's absolute location was 280 degrees.}}{14}}
\@writefile{lof}{\contentsline {figure}{\numberline {12}{\ignorespaces Event's captured by 160 degree separation. Detector 2's absolute location was 130 degrees. Detector 1's absolute location was 290 degrees.}}{14}}
\@writefile{lof}{\contentsline {figure}{\numberline {13}{\ignorespaces Event's captured for 170 degree separation. Detector 2's absolute location was 130 degrees. Detector 1's absolute location was 300 degrees. }}{15}}
\@writefile{lof}{\contentsline {figure}{\numberline {14}{\ignorespaces Event's captured for 190 degree separation. Detector 2's absolute location was 130 degrees. Detector 1's absolute location was 320 degrees. }}{15}}
\@writefile{lof}{\contentsline {figure}{\numberline {15}{\ignorespaces Event's captured by 130 degree separation. Detector 2's absolute location was 40 degrees. Detector 1's absolute location was 170 degrees.}}{16}}
\@writefile{toc}{\contentsline {subsection}{\numberline {8.4}Theta 2 Figures}{16}}
\@writefile{lof}{\contentsline {figure}{\numberline {16}{\ignorespaces Event's captured by 135 degree separation. Detector 2's absolute location was 40 degrees. Detector 1's absolute location was 175 degrees.}}{17}}
\@writefile{lof}{\contentsline {figure}{\numberline {17}{\ignorespaces Event's captured by 140 degree separation. Detector 2's absolute location was 40 degrees. Detector 1's absolute location was 180 degrees.}}{17}}
\@writefile{lof}{\contentsline {figure}{\numberline {18}{\ignorespaces Event's captured by 145 degree separation. Detector 2's absolute location was 40 degrees. Detector 1's absolute location was 185 degrees.}}{18}}
\@writefile{lof}{\contentsline {figure}{\numberline {19}{\ignorespaces Event's captured by 150 degree separation. Detector 2's absolute location was 40 degrees. Detector 1's absolute location was 190 degrees.}}{18}}
\@writefile{lof}{\contentsline {figure}{\numberline {20}{\ignorespaces Event's captured for 155 degree separation. Detector 2's absolute location was 40 degrees. Detector 1's absolute location was 195 degrees.}}{19}}
\@writefile{lof}{\contentsline {figure}{\numberline {21}{\ignorespaces Event's captured for 160 degree separation. Detector 2's absolute location was 40 degrees. Detector 1's absolute location was 200 degrees.}}{19}}
\@writefile{lof}{\contentsline {figure}{\numberline {22}{\ignorespaces Event's captured for 170 degree separation. Detector 2's absolute location was 40 degrees. Detector 1's absolute location was 210 degrees.}}{20}}
